3 qid:1 1:-0.199535760018 2:-0.629852129194 3:-0.605172345035 4:1.41283945224 5:0.246493058853 6:-0.00965232370721 7:-0.636691712431 8:-1.41950887239 9:0.834633414566 10:-0.786839155437 11:0.655686710162 12:1.00035413529 13:1.36253723504 # aut, 1961
4 qid:1 1:-0.199535760018 2:-0.629852129194 3:-0.605172345035 4:1.41283945224 5:0.246493058853 6:0.447802270957 7:0.273112380459 8:-1.38488480486 9:0.00896624873619 10:-0.786839155437 11:0.869479244441 12:0.983704410446 13:-0.0818134125904 # aut, 1962
6 qid:1 1:-0.199535760018 2:-0.629852129194 3:-0.605172345035 4:1.41283945224 5:0.246493058853 6:0.0873893319703 7:0.89472098223 8:-1.35241607079 9:0.168746071456 10:-0.786839155437 11:0.967266349616 12:1.08380680381 13:0.662827405725 # aut, 1963
3 qid:1 1:-0.199535760018 2:-0.629852129194 3:-0.605172345035 4:1.41283945224 5:0.246493058853 6:0.127331906981 7:1.03922885441 8:-1.31827736512 9:-0.064960703211 10:-0.786839155437 11:1.0475272394 12:1.15696887712 13:1.65566326631 # aut, 1964
6 qid:1 1:-0.199535760018 2:-0.629852129194 3:-0.605172345035 4:1.41283945224 5:0.246493058853 6:0.332968682972 7:0.966487805648 8:-1.25721079385 9:0.945353334773 10:-0.786839155437 11:0.991714782588 12:1.10232070898 13:0.333849735755 # aut, 1965
3 qid:1 1:-0.199535760018 2:-0.629852129194 3:-0.605172345035 4:1.41283945224 5:0.246493058853 6:0.179200979085 7:0.921840588041 8:-1.22378617986 9:-0.0939908574649 10:-0.786839155437 11:1.16317175094 12:1.27424506372 13:1.41496733925 # aut, 1966
4 qid:1 1:-0.199535760018 2:-0.629852129194 3:-0.605172345035 4:1.41283945224 5:0.246493058853 6:-0.000596932712966 7:-0.562844781812 8:-1.25383893712 9:-0.0347242888012 10:-0.786839155437 11:1.31592160282 12:1.41807024674 13:0.0978354348154 # aut, 1967
6 qid:1 1:-0.199535760018 2:-0.629852129194 3:-0.605172345035 4:1.41283945224 5:0.246493058853 6:0.522445681133 7:0.345666929531 8:-1.21948340159 9:-0.228376665619 10:-0.786839155437 11:0.558725021093 12:0.679577319849 13:0.829815153708 # aut, 1968
6 qid:1 1:-0.199535760018 2:-0.629852129194 3:-0.605172345035 4:1.41283945224 5:0.246493058853 6:2.33708069539 7:0.672240601822 8:-1.03871043701 9:-0.277747513796 10:-0.786839155437 11:-0.0184457576065 12:0.116642953265 13:1.73140417244 # aut, 1969
5 qid:1 1:-0.199535760018 2:-0.629852129194 3:-0.605172345035 4:1.41283945224 5:0.246493058853 6:0.965773435177 7:1.81717107212 8:-0.841986748057 9:1.32818338562 10:-0.786839155437 11:-0.00554556068605 12:0.133988071576 13:1.36656094213 # aut, 1970
6 qid:1 1:-0.199535760018 2:-0.629852129194 3:-0.605172345035 4:1.41283945224 5:0.350532529916 6:0.11625832223 7:0.173279534958 8:-0.866220549136 9:1.36354656395 10:-0.786839155437 11:0.316442114255 12:0.413074347025 13:1.15015655222 # aut, 1971
5 qid:1 1:-0.199535760018 2:-0.629852129194 3:-0.605172345035 4:1.2328387215 5:0.406037277276 6:0.857936130871 7:1.24414596576 8:-0.870501790892 9:2.02225642649 10:-0.786839155437 11:0.764262993381 12:0.686091198316 13:1.69740816475 # aut, 1972
4 qid:1 1:-0.199535760018 2:-0.629852129194 3:-0.605172345035 4:0.8008050509 5:0.487021607496 6:-0.0757324987941 7:0.770164925485 8:-0.862434426136 9:2.23439337323 10:-0.786839155437 11:0.674167852557 12:0.598255663248 13:1.03726573608 # aut, 1973
0 qid:1 1:-0.199535760018 2:-0.629852129194 3:-0.605172345035 4:0.168826079102 5:0.797469097212 6:0.970253599781 7:0.286215610382 8:-0.604997669575 9:2.92050007904 10:-0.786839155437 11:-0.599609624635 12:-0.643709236697 13:0.565589096611 # aut, 1974
5 qid:1 1:-0.199535760018 2:-0.629852129194 3:-0.605172345035 4:-0.220560540634 5:0.390982971198 6:-1.63170418966 7:-1.82566319914 8:-0.754423818153 9:1.48171185832 10:-0.786839155437 11:-2.044921414 12:-2.05305256044 13:-1.58698842657 # aut, 1975
5 qid:1 1:-0.199535760018 2:-0.629852129194 3:-0.605172345035 4:0.491926987735 5:1.27198061853 6:1.03939763482 7:2.20763357944 8:-0.5876460432 9:1.08948811365 10:-0.786839155437 11:-1.75074155338 12:-1.76620134269 13:0.88214905901 # aut, 1976
0 qid:1 1:-0.199535760018 2:-0.629852129194 3:-0.605172345035 4:1.01411355589 5:2.13916629297 6:-0.680346160105 7:0.566969997337 8:-0.56982856815 9:0.887360016347 10:-0.786839155437 11:-1.03704511326 12:-1.07025296735 13:1.13358576318 # aut, 1977
5 qid:1 1:-0.199535760018 2:-0.629852129194 3:-0.605172345035 4:-1.18718531264 5:0.841076749348 6:0.576799979855 7:-1.16025895909 8:-0.59996471848 9:1.26277374776 10:-0.786839155437 11:-1.43311907175 12:-1.45655829385 13:-1.51117938181 # aut, 1978
2 qid:1 1:-0.199535760018 2:-0.629852129194 3:-0.605172345035 4:-0.67251873 5:0.886881200761 6:1.09195308526 7:0.896795429558 8:-0.416073369423 9:0.37486404094 10:-0.786839155437 11:-1.73013788615 12:-1.74606386954 13:1.27191640926 # aut, 1979
0 qid:1 1:-0.199535760018 2:-0.629852129194 3:-0.605172345035 4:0.368676663913 5:1.7151790994 6:-0.424867584458 7:0.067300804644 8:-0.239664042948 9:1.06786636407 10:-0.786839155437 11:-1.16409420013 12:-1.19421356685 13:-0.540312564455 # aut, 1980
2 qid:1 1:-0.199535760018 2:-0.629852129194 3:-0.605172345035 4:-1.48602780292 5:1.249961032 6:-0.186333712464 7:-1.08678684107 8:-0.160251971328 9:1.60479612647 10:-0.786839155437 11:-0.318155280088 12:-0.349584768013 13:-1.47800681935 # aut, 1981
3 qid:1 1:-0.199535760018 2:-0.629852129194 3:-0.605172345035 4:0.119829927457 5:0.477120637924 6:-1.17239476772 7:-1.63926312234 8:-0.375575541942 9:0.96136355834 10:-0.786839155437 11:-0.926449398902 12:-0.809189949488 13:-0.400457276716 # aut, 1982
0 qid:1 1:-0.199535760018 2:-0.629852129194 3:-0.605172345035 4:1.44809535306 5:0.870696762589 6:-0.841177926315 7:-0.212500350578 8:-0.458653645478 9:0.071628245462 10:0.758226629954 11:-1.70072668926 12:-1.56927613663 13:0.0803591886605 # aut, 1983
2 qid:1 1:-0.199535760018 2:-0.629852129194 3:-0.605172345035 4:-2.1405966406 5:0.667254977133 6:0.495770844152 7:0.238311867546 8:-0.251789899376 9:0.769702803106 10:0.17882701799 11:-1.18533581086 12:-1.06680570774 13:-1.38024235236 # aut, 1984
2 qid:1 1:-0.199535760018 2:-0.629852129194 3:-0.605172345035 4:-1.23483960418 5:0.292206340207 6:0.621620727907 7:0.0362713309859 8:-0.0748182563175 9:-0.169314714842 10:-0.207439543474 11:-1.00863675797 12:-0.894632296031 13:-0.156796067 # aut, 1985
1 qid:1 1:-0.199535760018 2:-0.629852129194 3:-0.605172345035 4:0.168332722436 5:0.20480557792 6:-1.95978140234 7:-1.62323336497 8:-0.380619080773 9:-0.174985283361 10:-1.1731057169 11:-0.953555378082 12:-0.841056012929 13:-0.255418349525 # aut, 1986
3 qid:1 1:-0.199535760018 2:-0.629852129194 3:-0.605172345035 4:-0.709214196007 5:0.216662075737 6:-0.474433106015 7:-0.275355067154 8:-0.439129574595 9:-0.41794226661 10:0.17882701799 11:-0.954434108576 12:-0.842012768057 13:-0.72743221418 # aut, 1987
4 qid:1 1:-0.199535760018 2:-0.629852129194 3:-0.605172345035 4:-0.506321057544 5:0.378244440669 6:0.483196821299 7:0.749944571532 8:-0.25228704404 9:-0.848082756285 10:-0.207439543474 11:-0.694636010535 12:-0.588875306755 13:0.241721617121 # aut, 1988
4 qid:1 1:-0.199535760018 2:0.489610470107 3:-0.605172345035 4:0.106123117941 5:0.409909515864 6:0.937119440026 7:0.880796957912 8:-0.0519306488257 9:-0.168480319028 10:-1.1731057169 11:0.330606739293 12:0.40578439298 13:0.537257212286 # aut, 1989
3 qid:1 1:-0.199535760018 2:0.856532950252 3:-0.605172345035 4:0.468691223302 5:0.22460406156 6:0.545770178593 7:0.482693452229 8:-0.00396877965635 9:-0.151976191703 10:-0.979972205936 11:1.36429407607 12:1.41852265317 13:0.766492747946 # aut, 1990
2 qid:1 1:-0.199535760018 2:-0.240427540148 3:-0.605172345035 4:0.454144139298 5:0.570061753467 6:-0.572581980051 7:-0.0411509611507 8:-0.0766954046765 9:0.151544765104 10:-0.593705644472 11:2.14885386678 12:2.15876845017 13:0.314580005645 # aut, 1991
1 qid:1 1:-0.199535760018 2:-0.47470252485 3:-0.605172345035 4:0.149979227783 5:0.774697011218 6:-0.893685432242 7:-0.58917563947 8:-0.198660978088 9:0.0746102450148 10:-0.207439543474 11:2.48779119268 12:2.31715194609 13:-0.359330681969 # aut, 1992
2 qid:1 1:-0.199535760018 2:-0.333357014751 3:-0.605172345035 4:-1.64742781511 5:0.347074328875 6:-1.62653778491 7:-1.97933286352 8:-0.418458622614 9:-0.26663507858 10:1.14449365188 11:1.57212264051 12:1.42427622751 13:-1.14252485521 # aut, 1993
3 qid:1 1:-0.199535760018 2:0.374701535138 3:-0.605172345035 4:0.117897057824 5:0.932854413767 6:-0.026637647009 7:0.912448253463 8:-0.281539229862 9:-0.376353010198 10:-0.400572593973 11:0.112762715412 12:0.00130976145133 13:-0.205065861446 # aut, 1994
2 qid:1 1:-0.199535760018 2:0.780771758441 3:-0.605172345035 4:-1.00976598894 5:0.716294117593 6:0.274498761619 7:0.103340786681 8:-0.167063916379 9:-0.712407110615 10:-0.0143060325089 11:-0.656355182126 12:-0.748632651608 13:-0.0721611514221 # aut, 1995
2 qid:1 1:-0.199535760018 2:0.468526571798 3:-0.605172345035 4:0.231131043435 5:0.973750502242 6:-0.234611074151 7:-0.163328620758 8:-0.0740364820266 9:-1.18595835529 10:0.758226629954 11:-0.716375882187 12:-0.807155048516 13:-0.172810009906 # aut, 1996
4 qid:1 1:-0.199535760018 2:0.0264656881517 3:-0.380764189357 4:-1.30476798332 5:0.528298947438 6:1.18964736071 7:0.428224314928 8:0.241474914422 9:-1.67413100223 10:0.951359680453 11:-0.788399106396 12:-0.87735270037 13:-0.25166008235 # aut, 1997
4 qid:1 1:-0.199535760018 2:0.392027213307 3:-0.201083912731 4:-0.218294803159 5:0.0620516691642 6:0.501197149098 7:-0.0299329494459 8:0.348482588777 9:-1.4183285758 10:0.951359680453 11:-0.800306858583 12:-0.88898762366 13:0.486501790521 # aut, 1998
4 qid:1 1:-0.199535760018 2:-0.0254291109301 3:0.0697294174632 4:-0.254560015511 5:-0.193689340157 6:0.0500095436138 7:-0.120966872999 8:0.432429353788 9:-1.43577109884 10:-0.0143060325089 11:-0.518778439063 12:-0.614472055022 13:0.363320027839 # aut, 1999
1 qid:1 1:-0.199535760018 2:-0.11950768725 3:0.173721736258 4:0.21662101467 5:-0.439286193269 6:1.53244064813 7:0.970795721851 8:0.809578663595 9:-1.13527270268 10:-0.400572593973 11:-0.366445412581 12:-0.465951413748 13:0.42753714082 # aut, 2000
2 qid:1 1:-0.199535760018 2:-0.287618785897 3:0.449683431697 4:-0.676547114667 5:-0.630853509592 6:0.0690673802422 7:0.0521275258467 8:0.969847849484 9:-0.684104572004 10:-0.207439543474 11:0.105892813231 12:-0.000450051665337 13:-0.977262776965 # aut, 2001
1 qid:1 1:-0.199535760018 2:-0.436865916134 3:0.62020847058 4:-0.708353036924 5:-1.72954097896 6:-0.382762607263 7:-1.06515380001 8:0.903942621681 9:-0.983836232484 10:0.565093579454 11:0.46821557924 12:0.372527279685 13:-0.559186403686 # aut, 2002
3 qid:1 1:-0.199535760018 2:-0.215294125029 3:0.892303068142 4:-0.764455767661 5:-1.18675510014 6:-0.867689660172 7:-0.157013237349 8:0.922492786059 9:-1.02638116558 10:1.14449365188 11:0.452131999508 12:0.361706422738 13:-0.973005243418 # aut, 2003
2 qid:1 1:-0.199535760018 2:0.381732609237 3:0.882309182667 4:-0.0358789609316 5:-1.30896042529 6:0.849293453242 7:0.815439170982 8:1.22448810304 9:-0.774143934623 10:2.30329287581 11:0.894425707331 12:0.793001519521 13:-0.11135487654 # aut, 2004
4 qid:1 1:-0.199535760018 2:1.42841394563 3:1.39963835459 4:-0.580954786202 5:-1.39724320073 6:0.307170133652 7:0.196657121375 8:1.44384792568 9:-0.605940011493 10:2.88269202731 11:1.09637310973 12:0.989854752184 13:-0.205788914139 # aut, 2005
4 qid:1 1:1.281784858 2:2.86569923095 3:1.35439796859 4:-0.318048112345 5:-1.85836926216 6:0.378982432594 7:-0.0181271349258 8:1.63716179942 9:-0.679061031629 10:1.91702585388 11:0.477564964253 12:0.381627098043 13:0.428637639574 # aut, 2006
1 qid:1 1:2.7617482222 2:4.06699582969 3:1.51057281295 4:-0.893587158118 5:-2.14464101499 6:0.603091131838 7:0.313440868633 8:1.85184683175 9:-0.622183002695 10:1.33762670238 11:0.123245334377 12:0.0410245034606 13:0.446713102987 # aut, 2007
-4 qid:1 1:5.46847216695 2:2.97966411177 3:1.89087626373 4:-1.00655923385 5:-2.15614017919 6:-0.87217325946 7:-0.975571951748 8:1.88633301277 9:-0.755437488403 10:0.17882701799 11:0.277169547206 12:0.191072910552 13:-0.687894924293 # aut, 2008
2 qid:1 1:1.07865202386 2:0.149753474688 3:1.97998258528 4:-0.702274540597 5:-1.60727425447 6:-4.25275204334 7:-3.46423157177 8:1.05093673254 9:-0.824115363918 10:2.11015982531 11:-0.0379159466639 12:-0.116068266903 13:-3.31642305015 # aut, 2009
3 qid:1 1:2.69071524985 2:1.07662644126 3:2.19113544764 4:-0.546548929911 5:-1.56267281678 6:0.701686824 7:0.685657554418 8:1.47841602368 9:-0.888762017156 10:1.33762670238 11:-0.194096483097 12:-0.273339315566 13:-0.521474708383 # aut, 2010
1 qid:1 1:-1.12399324326 2:0.554134448319 3:2.11500487017 4:-0.905883469712 5:-0.972133580406 6:0.160664974727 7:0.420643494777 8:1.82945561319 9:-0.603898195416 10:0.758226629954 11:-0.515750226606 12:-0.582015368475 13:0.0110170389033 # aut, 2011
0 qid:1 1:-1.05942335894 2:0.959135347896 3:2.27949630453 4:-1.03989743569 5:-1.06859336866 6:-0.91266726056 7:-1.03367144325 8:1.80824419783 9:-0.762007330609 10:1.14449365188 11:-0.226052350369 12:-0.299604856502 13:-0.970715604393 # aut, 2012
