CountryCode; Year;GDP;Current account balance (% of GDP);Stocks traded, total value (% of GDP);Research and development expenditure (% of GDP);Household final consumption expenditure, etc. (annual % growth);Gross national expenditure (% of GDP);Exports of goods and services (annual % growth);Imports of goods and services (annual % growth);Trade (% of GDP);Inflation, GDP deflator (annual %);Unemployment, total (% of total labor force) (national estimate);Population growth (annual %);Urban population growth (annual %);Previous Year's GDP(%);
bel;1961;5.21200350926;0.364901760255;-0.575926327192;-0.55906870133;1.23481920628;-0.136486522008;0.896616542741;0.47326538782;-1.71091112669;-0.919907095975;0.952086960119;-0.180397757563;-0.19824791814;1.14619451066;
bel;1962;4.35158428167;0.364901760255;-0.575926327192;-0.55906870133;1.23481920628;-0.136486522008;1.09814142911;0.666591110746;-1.62319958501;-0.779875104736;0.952086960119;0.0491374285112;0.162604618104;1.25947013492;
bel;1963;6.95668473344;0.364901760255;-0.575926327192;-0.55906870133;1.23481920628;-0.136486522008;0.70156713055;0.751529466991;-1.50227448357;-0.239938823404;0.952086960119;1.26760255533;1.55499547481;0.842206931711;
bel;1964;3.56065983986;0.364901760255;-0.575926327192;-0.55906870133;1.23481920628;-0.136486522008;0.952274488657;0.790910557491;-1.46686642274;0.402778250869;0.952086960119;1.96082358464;2.26563416052;2.10555917251;
bel;1965;3.15589498173;0.364901760255;-0.575926327192;-0.55906870133;1.23481920628;-0.136486522008;0.245601859627;0.353277234124;-1.51699254166;0.584977335501;0.952086960119;1.82717656095;2.10955600703;0.45864545899;
bel;1966;3.8681469469;0.364901760255;-0.575926327192;-0.55906870133;1.23481920628;-0.136486522008;0.584546401274;0.995161587191;-1.3652924272;0.181567903824;0.952086960119;1.0161259898;1.25440663657;0.262353377368;
bel;1967;4.19412962495;0.364901760255;-0.575926327192;-0.55906870133;1.23481920628;-0.136486522008;-0.133767969985;-0.602550205023;-1.4808371572;-0.173293149563;0.952086960119;0.601951432647;0.809658210431;0.607762367489;
bel;1968;6.62979979529;0.364901760255;-0.575926327192;-0.55906870133;1.23481920628;-0.136486522008;1.5363812014;1.33849648967;-1.31891557291;-0.401154789831;0.952086960119;0.0328808258624;0.203287237346;0.76584876546;
bel;1969;5.95729489481;0.364901760255;-0.575926327192;-0.55906870133;1.23481920628;-0.136486522008;2.19342831648;2.06196033196;-1.04823617869;0.156843821852;0.952086960119;-0.351327886449;-0.210161237118;1.94703522047;
bel;1970;3.7530213702;0.364901760255;-0.575926327192;-0.55906870133;1.23481920628;-0.136486522008;-1.77543289375;-1.94953740468;-1.08271222399;0.548730423681;0.952086960119;-0.994651140826;-0.890012880356;1.62090170327;
bel;1971;5.25564666032;0.364901760255;-0.575926327192;-0.55906870133;1.23481920628;-0.00388162136402;-0.0846332745544;-0.207623028791;-1.17024706414;0.781339573417;0.952086960119;-0.703122798888;-0.598173492935;0.551931831204;
bel;1972;6.12232756983;0.364901760255;-0.575926327192;-0.55906870133;1.85781224985;-0.643960635774;1.29493890103;0.927787982448;-1.18544148083;1.084903942;0.952086960119;0.0265882780241;0.150981444359;1.28063502807;
bel;1973;4.19963425018;0.364901760255;-0.575926327192;-0.55906870133;2.52045507902;0.0242450073812;1.94071721074;2.65594374463;-0.820551600001;1.36711760822;0.952086960119;-0.241563530482;-0.141121992216;1.70093485503;
bel;1974;-1.32700026476;0.364901760255;-0.575926327192;-0.55906870133;0.0114252677035;0.84720537655;-0.252960228132;-0.059696566166;-0.365874273241;3.55130200058;0.952086960119;-0.241651027612;-0.149583580937;0.768518252012;
bel;1975;5.65275096655;0.364901760255;-0.575926327192;-0.55906870133;-1.09193493137;0.950335305875;-2.77788576885;-2.64669468749;-0.92746138614;3.3910017748;0.952086960119;-0.331080707379;-0.255101618223;-1.91164177552;
bel;1976;0.62613547753;0.364901760255;-0.575926327192;-0.55906870133;1.42496521725;0.965486066741;1.67618849621;1.46754685353;-0.711271440482;1.56877273592;0.952086960119;-0.71557621505;-0.664605802267;1.47321209924;
bel;1977;2.84191266438;0.364901760255;-0.575926327192;-0.55906870133;-0.382207540425;1.51540029173;-0.582619291443;0.0082402532282;-0.757689630301;1.53013775553;0.952086960119;-0.907973664544;-0.535887955753;-0.964462017084;
bel;1978;2.34105800147;0.364901760255;-0.575926327192;-0.55906870133;-0.406779566361;1.58420761664;-0.551946048343;-0.394718056754;-0.895142278014;0.315634497346;0.952086960119;-1.01317368995;-0.674172638745;0.110086594747;
bel;1979;4.47950122104;0.364901760255;-0.575926327192;-0.55906870133;1.1692664456;2.13658973549;0.439961518854;0.810273399707;-0.516759256643;0.348244431875;0.952086960119;-1.02508605615;-0.718743829369;-0.132804561439;
bel;1980;-0.279283619223;0.364901760255;-0.575926327192;-0.55906870133;-1.38855836074;2.76849553969;-1.06488681158;-1.27424007542;-0.456104799276;0.183656766774;0.952086960119;-0.954224788236;-0.669159433842;0.904240682416;
bel;1981;0.594986944531;0.364901760255;-0.575926327192;-0.55906870133;-0.636729692523;2.35808490523;-0.319077029346;-1.27696364268;-0.163425351894;0.600277313085;0.952086960119;-1.34759025701;-1.19907886425;-1.40354805846;
bel;1982;0.311842729141;0.364901760255;-0.575926327192;-0.55906870133;0.130972326021;2.15071121729;-0.448089675293;-0.646457346608;0.1512658445;1.56684762474;0.952086960119;-1.43313058256;-1.48695132333;-0.979567603102;
bel;1983;2.46638265897;0.364901760255;-0.575926327192;-0.55906870133;-1.09163972861;0.934428124783;-0.48014298278;-1.14224145846;0.251999972975;0.788585377467;0.952086960119;-1.36609044362;-1.42506746476;-1.11687934428;
bel;1984;1.65179284282;0.364901760255;-0.575926327192;-0.55906870133;-1.15902964966;0.829449699923;0.329572101594;0.319012594469;0.572064974702;0.719356444886;1.05450259794;-1.34363232955;-1.40957670026;-0.0720279465596;
bel;1985;1.82276212751;0.364901760255;-0.575926327192;-0.55906870133;0.0380998818696;0.571861054144;-0.963190395791;-0.828039613229;0.394168940148;0.396940560863;0.747255684481;-1.23456849893;-1.30753956368;-0.467066022293;
bel;1986;2.30665942919;0.364901760255;-0.575926327192;-0.55906870133;-0.0902040914841;-0.13815326014;-0.456816230141;-0.0266437259454;-0.0777711654097;-0.33098791981;0.747255684481;-1.21413330959;-1.29416011069;-0.384153891682;
bel;1987;4.72320890021;0.364901760255;-0.575926327192;-0.55906870133;-0.639304687409;0.102683414913;0.0124922915904;0.388076882081;-0.176103715007;-0.773347553358;0.747255684481;-1.0412266914;-1.11783644341;-0.149486264954;
bel;1988;3.46916681333;0.364901760255;-0.575926327192;-0.55906870133;0.367287145398;-0.222147446964;0.995156980347;1.09089389203;0.0895420554264;-0.580575977014;0.132761369211;-0.230173784791;-0.283111202674;1.02242754249;
bel;1989;3.13740245549;0.364901760255;-0.61735987726;-0.55906870133;0.255066417094;-0.0985857665902;0.683285141044;0.951631988792;0.437371265605;0.464413412893;-0.788980347872;-0.0721917461522;-0.122373518121;0.414275607528;
bel;1990;1.83307429748;0.364901760255;-0.757417831988;-0.55906870133;0.319700882089;0.149278980157;-0.0700944163031;0.026984878628;0.295689620659;-0.324776823089;-1.35226708841;-0.298810855325;-0.370462411221;0.253385364466;
bel;1991;1.5306548101;0.364901760255;-0.773494513991;-0.55906870133;0.263688105667;0.082620862987;-0.38985105279;-0.358129837557;0.178120276619;-0.299244596955;-1.45468272623;-0.0431022076126;-0.107698410028;-0.379152970111;
bel;1992;-0.961873090755;0.364901760255;-0.73135786019;-0.55906870133;-0.405873887743;-0.313344869726;-0.261101586202;-0.117069660566;0.0342293549371;-0.0814181858596;-1.60830642714;0.0758340746508;0.00484548476792;-0.52581231938;
bel;1993;3.22697146873;0.364901760255;-0.59141583687;-0.55906870133;-1.63588965143;-0.697790030781;-1.12636509995;-0.97524379954;-0.213247638988;0.144680500863;-0.891395985691;0.0232858773698;-0.0540046413205;-1.73457212235;
bel;1994;2.38475722188;0.364901760255;-0.568890258239;-0.55906870133;0.0489211969445;-0.931979897829;0.720325992606;0.489173359185;-0.0409055448033;-0.610268227953;-0.123277969514;-0.264087627411;-0.361654168289;0.296822159198;
bel;1995;1.42441320369;0.364901760255;-0.563591512623;-0.55906870133;-0.495355210221;-1.06232259664;0.0179307667142;-0.0146071674981;0.0876058498123;-0.957556300508;-0.276901670421;-0.608345001265;-0.724893087381;-0.111612477275;
bel;1996;3.73515224005;0.364901760255;-0.200049016174;-0.55906870133;-0.283253205139;-0.643669806665;-0.250668763979;-0.0972912045862;0.137178671156;-1.29485598556;-0.174486032602;-0.657298247395;-0.787492385436;-0.577334544343;
bel;1997;1.92896318662;0.364901760255;0.0144380556229;-0.0766383935068;-0.180595229199;-0.974282648637;1.07121698455;0.801323531607;0.426283742649;-1.096592998;-0.430525371327;-0.494864966538;-0.621968111396;0.543266136336;
bel;1998;3.53999436101;0.364901760255;0.877723681369;0.128501444285;0.0148445403489;-0.992944963466;-0.0311504453462;0.15942480004;0.418352010908;-0.69932695367;-0.276901670421;-0.594085290254;-0.729441614782;-0.33265133027;
bel;1999;3.66961942257;0.364901760255;1.01691912158;0.66285120204;-0.276800613962;-1.18418413756;-0.0885731952308;-0.392261198612;0.423958969568;-1.3181052629;-0.635356646965;-0.539492767024;-0.683922909384;0.448623665399;
bel;2000;0.807633273731;0.364901760255;0.407172293971;0.899026688675;0.129424566962;-0.530549278891;1.45295670175;1.42370067082;1.08396895073;-0.656226690595;-1.65951424605;-0.493031193039;-0.658111510224;0.511485775717;
bel;2001;1.35965366661;0.364901760255;0.526123500887;1.6435196949;-0.605932900858;-0.908953449352;-0.809726344558;-0.870554850636;1.03530784402;-0.627658329585;-1.86434576586;-0.139456423793;-0.315476114496;-0.87644404934;
bel;2002;0.806831274701;0.364901760255;0.145043753395;0.685185267095;-1.06489643526;-2.01999628219;-0.507866043054;-0.779297397132;0.869908560942;-0.645062742567;-1.1986433875;0.224173229496;0.0601456424138;-0.608739900031;
bel;2003;3.27431154043;0.364901760255;0.172936405449;0.240896901541;-0.967139385427;-1.8416140004;-0.92808339168;-0.810014984603;0.675550581764;-0.654522649488;-0.840188410959;0.120898401437;-0.0552533421439;-0.876832981472;
bel;2004;1.75110820218;0.364901760255;0.919926789399;0.0977558482358;-0.477111055692;-1.58183495268;0.261626430096;0.269556688721;0.844176499589;-0.59426276427;-0.73777277314;0.170210956726;-0.00386441512685;0.319779886462;
bel;2005;2.66654191617;0.364901760255;1.90876014827;-0.0872253204484;-0.779014421947;-1.06293010384;-0.232427411606;0.0573552080349;1.0865224635;-0.497594954741;-0.73777277314;0.578980615202;0.418854549132;-0.418902704172;
bel;2006;2.88321334184;0.227852523339;2.63076669501;0.12502081077;-0.480518492242;-0.998438607377;0.114099837289;0.0549635348315;1.2474933526;-0.51092094405;-0.840188410959;0.960683283271;0.813318650985;0.0250399595668;
bel;2007;0.985163040469;-0.0859583321602;3.88185360566;0.372653382725;-0.50906847482;-1.01508005056;0.0537726163336;0.143216803449;1.38000359892;-0.498313666329;-1.1986433875;1.22132486814;1.07778176398;0.130115497423;
bel;2008;-2.80056685644;-2.68286734361;2.65345377421;0.908308378048;-0.325393851881;0.566096406432;-0.743540432654;-0.38316147045;1.6333206785;-0.592753815561;-1.45468272623;1.41529515144;1.28007574821;-0.790350390854;
bel;2009;2.33783227393;-1.98281653911;1.35034195044;1.34208232986;-0.938456645888;-0.413744715989;-3.00519279039;-2.58781336898;0.758348305714;-0.971201911436;-0.993811867688;1.46626689741;1.32946308283;-2.62625285868;
bel;2010;1.75424093119;0.148709503894;1.05417080463;1.90841040803;0.0979018447162;-0.097436457359;0.6652144069;0.535786166625;1.23997958847;-0.626656748824;-0.788980347872;2.63523454531;2.54555203805;-0.134368888876;
bel;2011;-0.14380189461;-2.38457854312;0.809796809666;2.69177048851;-1.33398583923;0.579820377009;0.310942757493;0.389267569892;1.67582097197;-0.649416727684;-1.40347490732;2.70698831049;2.61660570546;-0.417383476688;
bel;2012;0.196622433399;-3.2203068269;0.853362159722;2.86145137237;-1.52905629538;0.434874886954;-0.649609517247;-0.652923409907;1.75173189999;-0.674666430437;-1.1986433875;1.19239569043;1.03222068225;-1.33784573966;