7.11677926679;0.39011445577;-0.710388951513;-0.582489884808;0.342178900496;0.68440991429;0.316328808051;-0.801396827722;-1.46989922206;-1.11240967324;-0.442397049919;2.12771613428;2.25774300191;-0.0600304335644;
5.18177608227;0.39011445577;-0.710388951513;-0.582489884808;0.342178900496;0.68440991429;-0.0713511313671;-0.478933195403;-1.48739649802;-0.817790799277;-0.442397049919;1.71636912441;2.54064192913;1.67948491635;
6.69945668194;0.39011445577;-0.710388951513;-0.582489884808;0.342178900496;0.68440991429;0.746226360733;-0.425625765561;-1.47769562694;-0.618443720673;-0.442397049919;1.72498347888;2.49009249455;0.828092905912;
6.6365451389;0.39011445577;-0.710388951513;-0.582489884808;0.342178900496;0.68440991429;1.35043788983;1.20946742333;-1.35253888841;-0.452639174307;-0.442397049919;1.79159002849;2.47588816815;1.49586500432;
6.58496540751;0.39011445577;-0.710388951513;-0.582489884808;0.342178900496;0.68440991429;-0.0794543830572;1.13276073485;-1.36421131315;-0.218352637254;-0.442397049919;1.57155368152;2.28690388719;1.4681842307;
2.91531036036;0.39011445577;-0.710388951513;-0.582489884808;0.342178900496;0.608025412544;1.52951080393;1.25729890406;-1.25321073269;0.281146094717;-0.442397049919;1.72488982196;2.27562829838;1.44548939921;
5.29534186353;0.39011445577;-0.710388951513;-0.582489884808;0.342178900496;0.0986248482213;0.966187752067;0.0110444207762;-1.18621829465;0.102723155071;-0.442397049919;1.5400690321;1.59087386358;-0.169141012362;
5.26000082595;0.39011445577;-0.710388951513;-0.582489884808;0.342178900496;-0.00390291080754;1.37668042846;0.775525482311;-1.05958781872;-0.133232983191;-0.442397049919;0.998491076851;1.24445238389;0.878061298519;
7.65830309103;0.39011445577;-0.710388951513;-0.582489884808;0.342178900496;0.570918440213;0.538908379227;1.17641025868;-0.967339563451;0.134830899621;-0.442397049919;0.259802169708;0.775870888633;0.862511413496;
4.11765762207;0.39011445577;-0.710388951513;-0.582489884808;0.342178900496;-0.6918862993;0.273115801663;-1.7064672985;-1.04539604958;-0.771460346911;-0.442397049919;0.37061824382;0.820675772275;1.91775277095;
5.44585557985;0.39011445577;-0.710388951513;-0.582489884808;0.342178900496;-0.235795191852;-0.0627567423424;0.182447241774;-1.10852510694;0.235304186598;-0.442397049919;0.658283153273;0.854903460846;0.359885947685;
6.96420291802;0.39011445577;-0.710388951513;-0.582489884808;2.56139572834;0.13928625064;0.634623125329;1.40174511387;-1.01937655885;0.564475595637;-0.442397049919;0.94595753712;-0.247224986024;0.944286603243;
3.69098764607;0.39011445577;-0.710388951513;-0.582489884808;2.39461684851;-0.117595681859;0.886594446142;1.42014446141;-0.830754218345;1.73125588949;-0.442397049919;1.23362338184;-0.0778042549249;1.61235206336;
1.822973134;0.39011445577;-0.710388951513;-0.582489884808;1.17866402727;0.524696270517;-1.68639215527;0.741379270524;-0.535616690719;3.42950446431;-0.442397049919;1.52127694629;0.0938723057481;0.172153228915;
5.19930243668;0.39011445577;-0.710388951513;-0.582489884808;-0.600215639179;1.48788188967;-2.36226150663;-1.31600694767;-0.705734065892;2.04199080482;-0.442397049919;1.80895755871;0.265573149055;-0.649764090748;
3.45823059977;0.39011445577;-0.710388951513;-0.582489884808;1.48210876568;0.961384398719;0.478842615642;0.140519623039;-0.82655582337;1.67276936413;-0.442397049919;0.15149013255;-0.698931753113;0.835804416792;
3.9535912654;0.39011445577;-0.710388951513;-0.582489884808;-0.778538737735;0.685553692148;0.229641911715;-0.903119681039;-0.711644033494;0.840693381793;-0.442397049919;-0.277972257682;-0.614509026064;0.0697412581349;
3.80492288075;0.39011445577;-0.710388951513;-0.582489884808;0.389962889909;0.406255655295;0.869285811565;-0.371136313689;-0.472860630751;0.78104517843;-0.442397049919;-0.777821544119;-0.913639728261;0.287697546981;
2.16261689876;0.39011445577;-0.710388951513;-0.582489884808;-0.13575619878;0.308548407105;-0.243202327515;0.244228826611;-0.211919432263;1.82332648797;-0.442397049919;-0.794863752523;-0.923888284252;0.222284179235;
3.50311953362;0.39011445577;-0.710388951513;-0.582489884808;-0.541733928735;-0.348562171558;-0.721605951724;-1.33561685095;-0.128507204469;1.84985177036;-0.442397049919;0.0660071570432;-0.408821472424;-0.500322482576;
-3.02026581466;0.39011445577;-0.710388951513;-0.582489884808;-0.141054567823;0.224846791816;-0.575665102236;-0.442453803538;-0.218824911557;2.06709794519;-0.371508570068;-0.0873359490463;-0.479912809712;0.0894921711794;
2.56606275718;0.39011445577;-0.710388951513;-0.582489884808;-3.53121538548;-1.38461057924;-1.14133080138;-3.332982059;-0.645049881194;1.45221627496;2.03870211106;-0.189391038779;-0.281308611324;-2.78076572348;
5.57186535039;0.39011445577;-0.710388951513;-0.582489884808;-0.403734658643;-1.05952172828;0.131387328133;0.745446687433;-0.636596908953;0.516089850321;2.74758758562;-0.77988710535;-0.637715674971;-0.322808262831;
4.6792451924;0.39011445577;-0.710388951513;-0.582489884808;0.868501629561;-1.19393545532;2.41612511615;1.88788256525;-0.180590124738;-0.17196409082;2.25136788864;-0.899526837663;-0.712383335073;0.999730290744;
2.19816269203;0.39011445577;-0.710388951513;-0.582489884808;1.05576340359;-0.584135813045;-0.0983117741822;0.468196149614;-0.147866425444;-0.235184408554;1.75514819165;-0.993563855198;-0.771698193021;0.606981753196;
4.04227690091;0.39011445577;-0.710388951513;-0.582489884808;-0.269859879797;0.116587719626;-0.0946938501389;0.188997480951;-0.13177365415;-0.313402502176;1.11715085891;-0.773864354967;-0.666055376924;-0.484682506046;
4.73765343868;0.39011445577;-0.710388951513;-0.582489884808;0.862753746181;-0.00104420617033;-0.327230456249;0.006298643465;-0.299136396909;0.210969217879;0.479154202224;0.119955044075;-0.423143059531;0.326718796205;
2.37548626711;0.39011445577;-0.710388951513;-0.582489884808;0.445260456908;0.215045363964;0.724961192508;1.28181631622;-0.27190374834;0.138727988559;-0.229731272341;0.0596574215591;-0.459234874641;0.632681098097;
0.1289763084;0.39011445577;-0.617694471634;-0.582489884808;-0.0116271156964;0.592863471978;-0.744249474331;0.0702321151872;-0.372948935997;0.186685649826;-0.442397049919;1.49414884725;0.399102933083;-0.406660993579;
-2.1202435939;0.39011445577;-0.747654108256;-0.582489884808;-1.4016616117;0.532030011325;-0.0874779479253;-0.536832911593;-0.376496167096;-0.213548078484;-0.0170654947622;0.649525904512;-0.106299183733;-1.39511447289;
0.854376227338;0.39011445577;-0.721001148706;-0.582489884808;-2.96787285744;0.897556345974;-0.61002658565;-0.436678974871;-0.434444977413;-0.307217101784;1.54248241407;0.261907056727;-0.297306519226;-2.38476031423;
2.60737070527;0.39011445577;-0.67853580282;-0.582489884808;-1.15371297291;0.809511234672;0.426766865798;-0.0389607727267;-0.163609110279;-0.794273132915;2.18047907076;-0.125716567114;-0.00945123963135;-1.07594202899;
4.55400798134;0.39011445577;-0.329658620725;-0.582489884808;-0.835632851584;0.613886783045;1.03127412319;0.328536844741;0.261124892028;-0.845932513204;2.32225603047;-0.513331754767;-0.248015350166;-0.304632966142;
2.73849394218;0.39011445577;-0.223688029193;-0.582489884808;-0.0163176116193;0.0220287789645;1.38792267268;0.454928943944;0.731030788957;-0.807716680971;1.6133705559;-0.900951387835;-0.48875155537;0.551877988119;
1.67960445998;0.39011445577;-0.139768775638;-0.582489884808;-0.661866676159;-0.990418249045;0.683686867317;0.0686186147138;1.08908023406;-0.563814757152;0.97537389921;-1.28856616634;-0.724928323386;-0.246939378255;
4.25334813117;0.39011445577;0.249018215947;-0.582489884808;-0.277478891337;-1.40691232478;0.125904728663;-0.00431462728626;1.17688682175;-0.712331617428;1.04626271709;-0.563331748278;-0.259406613094;-0.712845611535;
4.13818697545;0.39011445577;0.346838770381;-0.531281102199;0.895961445505;-0.361644401869;0.635206271547;1.40293317022;1.49100483417;-0.901951895491;0.691819979803;-0.622017022302;-0.0451480545269;0.419589113172;
4.99725613939;0.39011445577;0.578894981999;0.19191673332;-0.243568076755;-0.374718653397;0.798193360882;-0.00757955915463;1.7667598778;-1.31745927121;0.124711464942;-1.17947909553;-0.39406968549;0.368918763545;
5.12312241013;0.39011445577;0.571876507288;0.458202402886;0.417073572371;-1.22130966339;1.03198787287;0.417412618469;1.93446274473;-0.680103579665;-0.371508570068;-1.29086665569;-0.475890026586;0.746905026534;
1.68837419047;0.39011445577;1.68084296102;1.28165405225;0.378237047508;-2.29083035246;0.716421908227;0.485267608183;2.14611538361;0.0629047000664;-0.938616746906;-1.12884512291;-0.391710430597;0.802285574822;
2.8018680611;0.39011445577;0.928949455922;2.56793212132;-0.370923641198;-2.31959460992;-1.42101955364;-1.60665125334;1.8119708114;-0.75343650556;-0.655062827498;-0.76034363058;-0.268963874976;-0.708986972682;
1.9253174606;0.39011445577;0.631889616314;2.23413740877;0.361019415286;-1.63361283458;-0.680210515257;-0.556868756179;1.61959169529;-0.875345624801;-0.300620090216;-1.08768330029;-1.02106302748;-0.21905507349;
3.13878825858;0.39011445577;0.5904404316;2.18934775525;-0.220018074344;-1.35695013413;-1.19889056032;-0.181062253774;1.15621415554;-0.225900451296;-0.371508570068;-0.799047945762;-0.8463484661;-0.604733083729;
3.1631296259;0.39011445577;0.969251672751;2.41618102469;-0.192707728583;-1.65879182413;0.0923292560251;0.482305351744;1.1793681821;-0.243075565734;-0.655062827498;-0.78215039973;-0.838581176911;-0.0708118217039;
2.62178168577;0.39011445577;1.24482211624;2.22187615096;0.274623361138;-1.39087786835;-0.496701702013;0.300386700635;1.14204692409;-0.264793737552;-1.00950556478;-0.829131321091;-0.869034001287;-0.0601017382153;
2.00831101623;0.0729626707616;2.09544386398;1.97044824086;0.448480586057;-0.765040689143;-0.737094888731;-0.0132376329949;1.00471833943;-0.418732088403;-1.29305948419;-1.37977062779;-1.16826335025;-0.298292204662;
1.17542627243;-0.294766967608;2.57050126786;1.6712014253;0.623623087082;-0.474405981813;-0.688376666562;0.0566464041081;0.874318940351;-0.255681201253;-1.50572526177;-0.87587778;-0.667423810884;-0.568216322028;
-2.71147114257;-0.635612472857;2.63359903976;1.34526834275;0.0214178982768;-0.270231303399;-1.69349673589;-0.713325148888;0.92714602868;-0.0541652496667;-1.43483678191;-0.548674751317;-0.474708640287;-0.934681567234;
3.37425422422;-2.59647547164;1.83203740182;1.722554458;-1.68120973523;1.38306123003;-3.2123105335;-2.77021931598;0.251280323311;-1.9142778652;0.124711464942;-0.366225248659;-0.370742163517;-2.64489756636;
2.5281842048;-2.94650171169;1.64053738271;0.926005450775;0.359109430198;1.60657648542;0.327986774824;1.28441500606;0.378763700349;-0.437983964496;-0.087954312637;-0.456165324756;-0.427570911285;0.0327920604404;
1.70900565608;-2.48303981843;1.66846251501;0.384706981086;-0.500798574173;1.26618518559;-0.0552729150645;0.0474618355332;0.581630476079;-0.255543278091;-0.513285529771;-0.824139417584;-0.650762271764;-0.339474642053;
2.02201667229;-2.89057224606;1.03849513292;-0.0268385309792;-0.68326083211;1.65243036325;-0.625842317083;-0.354556693365;0.534165579637;-0.739269070877;-0.655062827498;-0.231246823281;-0.296831296532;-0.699909227938;
0.0;-2.89057224606;1.03849513292;-0.0268385309792;-0.580887498897;1.49524716283;-0.505655947552;-0.66836408724;0.518274140759;-0.848087666057;-0.655062827498;-0.334542073008;-0.357340561542;-0.562185899876;
