1 qid:1 1:0.0848823768201 2:-0.361766818636 3:0.522434365979 4:-0.243451394561 5:0.0581601111674 6:-0.286376681421 7:-1.03825543722 8:-1.56851070669 9:-0.446573968081 10:0.921842430899 11:1.45818997755 12:0.580061623222 13:0.111277506708 # gbr, 1961
4 qid:1 1:0.0848823768201 2:-0.361766818636 3:0.522434365979 4:-0.243451394561 5:0.0581601111674 6:-0.640882654521 7:-0.488383560994 8:-1.71365937625 9:-0.379847348621 10:0.921842430899 11:1.8005295626 12:0.587503639765 13:-0.482368762294 # gbr, 1962
5 qid:1 1:0.0848823768201 2:-0.361766818636 3:0.522434365979 4:-0.243451394561 5:0.0581601111674 6:0.0716678582156 7:-0.079297615687 8:-1.71337662002 9:-0.720994823352 10:0.921842430899 11:1.41125106307 12:0.286625627882 13:0.770263457166 # gbr, 1963
3 qid:1 1:0.0848823768201 2:-0.361766818636 3:0.522434365979 4:-0.243451394561 5:0.0581601111674 6:-0.163712521682 7:1.22972429018 8:-1.69874252117 9:-0.31396885707 10:0.921842430899 11:1.03045809498 12:-0.00784021903666 13:1.28596813144 # gbr, 1964
2 qid:1 1:0.0848823768201 2:-0.361766818636 3:0.522434365979 4:-0.243451394561 5:0.0581601111674 6:-0.028506469 7:-0.679219029652 8:-1.86519294117 9:-0.169041121707 10:0.921842430899 11:1.00022647695 12:-0.0317786807311 13:0.213941174996 # gbr, 1965
2 qid:1 1:0.0848823768201 2:-0.361766818636 3:0.522434365979 4:-0.243451394561 5:-0.400754690022 6:0.154020011143 7:-0.415946301497 8:-1.89883528791 9:-0.26233736845 10:0.921842430899 11:0.646382294302 12:-0.301959066802 13:-0.138586071277 # gbr, 1966
4 qid:1 1:0.0848823768201 2:-0.361766818636 3:0.522434365979 4:-0.243451394561 5:0.156248324028 6:-0.775352328887 7:0.521820184236 8:-1.85386610396 9:-0.542089345507 10:0.921842430899 11:0.596858447455 12:-0.348206865807 13:-0.0138808928531 # gbr, 1967
2 qid:1 1:0.0848823768201 2:-0.361766818636 3:0.522434365979 4:-0.243451394561 5:0.00523838210388 6:1.80647285413 7:0.660647168881 8:-1.29430295608 9:-0.284146997962 10:0.921842430899 11:0.395900301211 12:-0.502090962634 13:0.78384514542 # gbr, 1968
3 qid:1 1:0.0848823768201 2:-0.361766818636 3:0.522434365979 4:-0.243451394561 5:-0.748915011067 6:1.04287799812 7:-0.325965109578 8:-1.24642287627 9:-0.0408193406422 10:0.921842430899 11:0.120461152002 12:-0.712651767875 13:-0.13709217018 # gbr, 1969
2 qid:1 1:0.0848823768201 2:-0.361766818636 3:0.522434365979 4:-0.243451394561 5:-1.13588436587 6:3.51771131065 7:2.45034580767 8:-1.10311501352 9:0.435009775068 10:0.921842430899 11:0.0541647590579 12:-0.767910169987 13:0.156363294235 # gbr, 1970
4 qid:1 1:0.0848823768201 2:-0.361766818636 3:0.522434365979 4:-0.243451394561 5:-1.46831789606 6:0.529074134082 7:0.157077564045 8:-1.13958886406 9:0.706634670897 10:0.921842430899 11:0.127693434272 12:-0.502021497007 13:-0.123283082374 # gbr, 1971
7 qid:1 1:0.0848823768201 2:-0.361766818636 3:0.522434365979 4:1.71247561589 5:-0.535359126834 6:-0.759613932582 7:1.04913369358 8:-1.29052320587 9:0.466899327712 10:0.921842430899 11:-0.177415013689 12:0.231115374349 13:0.609369258607 # gbr, 1972
-2 qid:1 1:0.0848823768201 2:-0.361766818636 3:0.522434365979 4:1.28650079451 5:0.868351956073 6:1.71701681139 7:1.29802906316 8:-0.47349657209 9:0.315971443032 10:0.921842430899 11:-0.743544286016 12:-0.208636476183 13:2.33763508331 # gbr, 1973
-1 qid:1 1:0.0848823768201 2:-0.361766818636 3:0.522434365979 4:-2.37886625051 5:2.41365707521 6:0.616032216572 7:-0.702555565876 8:0.987726742351 9:1.83240417852 10:0.921842430899 11:-1.24865756411 12:-0.594285295658 13:-1.87048756445 # gbr, 1974
3 qid:1 1:0.0848823768201 2:-0.361766818636 3:0.522434365979 4:-1.53943042672 5:0.426639732564 6:-1.65031353184 7:-2.1958115926 8:0.0473260108359 9:4.18034737563 10:0.921842430899 11:-1.52222421145 12:-0.807550103399 13:-1.38040603454 # gbr, 1975
2 qid:1 1:0.0848823768201 2:-0.361766818636 3:0.522434365979 4:-1.03549053916 5:0.0518396767263 6:1.01145676175 7:0.11375534899 8:0.672966387243 9:1.84594629602 10:0.921842430899 11:-1.58890741176 12:-0.863368073202 13:0.205659769453 # gbr, 1976
3 qid:1 1:0.0848823768201 2:-0.361766818636 3:0.522434365979 4:0.207748442601 5:-1.08953086832 6:0.520166447119 7:-0.522271145321 8:0.882505480692 9:1.58049385043 10:0.921842430899 11:-1.62100613317 12:-0.88905464912 13:-0.0234185461216 # gbr, 1977
3 qid:1 1:0.0848823768201 2:-0.361766818636 3:0.522434365979 4:1.15847058727 5:-1.46935068237 6:-0.589038977541 7:-0.166720420621 8:0.415192167553 9:1.15107584379 10:0.921842430899 11:-1.47260802582 12:-0.784952627584 13:0.478756163659 # gbr, 1978
-2 qid:1 1:0.0848823768201 2:-0.361766818636 3:0.522434365979 4:0.795699194765 5:-0.874250682528 6:-0.165161522983 7:0.995438396801 8:0.414427249036 9:1.76141532373 10:0.921842430899 11:-1.1451444259 12:-0.537008611746 13:0.127522070761 # gbr, 1979
-1 qid:1 1:0.0848823768201 2:-0.361766818636 3:0.522434365979 4:-1.64690375696 5:-2.01956598933 6:-1.06330342068 7:-1.59289847457 8:-0.0121801849007 9:2.68607286584 10:0.921842430899 11:-1.02952484553 12:-0.45400982373 13:-2.11750034096 # gbr, 1980
2 qid:1 1:0.0848823768201 2:-0.361766818636 3:0.522434365979 4:-1.45473588581 5:-2.43469774099 6:-1.1058189574 7:-1.43789650418 8:-0.222787542156 9:1.11796919915 10:0.921842430899 11:-1.35825674441 12:-0.896934022193 13:-1.74613427663 # gbr, 1981
4 qid:1 1:0.0848823768201 2:-0.361766818636 3:0.522434365979 4:-0.11901451182 5:-1.84624382399 6:-0.751354449804 7:0.0689798001706 8:-0.198261913156 9:0.341562283207 10:0.921842430899 11:-1.6325296128 12:-1.69220303755 13:-0.117731026563 # gbr, 1982
3 qid:1 1:0.0848823768201 2:-0.361766818636 3:0.522434365979 4:0.801148294281 5:-1.25153790096 6:-0.552880522728 7:0.39019011127 8:-0.02047833128 9:-0.0326262344217 10:0.921842430899 11:-1.36105269756 12:-1.48951813397 13:0.612081268575 # gbr, 1983
4 qid:1 1:0.0848823768201 2:-0.361766818636 3:0.522434365979 4:0.14022403203 5:-0.611500006249 6:0.489861615444 7:1.04081841284 8:0.604193368502 9:-0.207840531268 10:0.921842430899 11:-0.879143944622 12:-1.11918671829 13:0.157677224276 # gbr, 1984
4 qid:1 1:0.0848823768201 2:-0.361766818636 3:0.522434365979 4:0.843588361607 5:-1.35807584676 6:0.294054920021 7:-0.405168086168 8:0.557960417535 9:0.0356700780663 10:0.732997629094 11:-0.612537352788 12:-0.920206048504 13:0.600182851547 # gbr, 1985
5 qid:1 1:0.0848823768201 2:-0.361766818636 3:0.522434365979 4:1.61537316058 5:-0.2512184015 6:-0.0784282367358 7:0.45071140282 8:-0.0395916333626 9:-0.437649022337 10:0.695228524656 11:-0.594454184745 12:-0.906564963826 13:0.796995507564 # gbr, 1986
5 qid:1 1:0.0848823768201 2:-0.361766818636 3:0.522434365979 4:1.45787833445 5:-0.0307908819233 6:0.295266362016 7:0.649719101709 8:-0.0657185084142 9:-0.0610345024544 10:0.544152827289 11:-0.668094679759 12:-0.962723411758 13:1.05907416805 # gbr, 1987
2 qid:1 1:0.0848823768201 2:-0.361766818636 3:0.522434365979 4:2.1393762493 5:1.49718542062 6:-0.86534405375 7:1.61199908147 8:-0.378679230123 9:0.121137398979 10:-0.21122637993 11:-0.631506735362 12:-0.935002685951 13:1.28295672399 # gbr, 1988
1 qid:1 1:0.0848823768201 2:-0.919853099001 3:0.522434365979 4:0.345448901383 5:1.76042645574 6:0.00788697713058 7:0.558357332485 8:-0.13927747733 9:0.325316298705 10:-0.815529889782 11:-0.483055064699 12:-0.822167815537 13:-0.0279494549738 # gbr, 1989
-1 qid:1 1:0.0848823768201 2:-1.09970951458 3:0.522434365979 4:-0.749076919478 5:0.576658320641 6:0.167886245071 7:-0.789552446909 8:-0.236590639552 9:0.544495727923 10:-0.966605587148 11:-0.333161291264 12:-0.708228514196 13:-0.743893992556 # gbr, 1990
1 qid:1 1:0.0848823768201 2:-1.05951021556 3:0.522434365979 4:-2.05361560302 5:-0.376896423283 6:-0.960205723247 7:-1.76000566069 8:-0.647740985708 9:0.205385991875 10:-0.362302437489 11:-0.29311606512 12:-0.594691578314 13:-1.73127631037 # gbr, 1991
3 qid:1 1:0.0848823768201 2:-0.967791696713 3:0.522434365979 4:-0.374370970712 5:-0.160997252058 6:0.00220238086951 7:0.432659935462 8:-0.541903597604 9:-0.537980222182 10:0.128694119242 11:-0.443776970223 12:-0.376722708329 13:-0.498222818954 # gbr, 1992
5 qid:1 1:0.0848823768201 2:-0.825165556775 3:0.522434365979 4:0.934357694815 5:-0.40017498924 6:0.00682774539674 7:-0.247443063856 8:-0.078857577764 9:-0.736809542514 10:0.355308025485 11:-0.562878691903 12:-0.46752069572 13:0.548283621024 # gbr, 1993
4 qid:1 1:0.0848823768201 2:-0.81643700766 3:0.522434365979 4:0.676378631118 5:-0.625475142112 6:1.03860892423 7:0.266259982484 8:0.155690062085 9:-0.879798072242 10:0.0909253749966 11:-0.505275578653 12:-0.420088040838 13:1.24551803729 # gbr, 1994
3 qid:1 1:0.0848823768201 2:-0.812145613707 3:0.522434365979 4:0.0534200282809 5:-0.840378343191 6:1.08633616976 7:0.189357447748 8:0.57981315925 9:-0.636420930908 10:-0.286764228613 11:-0.466613848337 12:-0.394620266658 13:0.568731584479 # gbr, 1995
4 qid:1 1:0.0848823768201 2:-0.750940441373 3:0.522434365979 4:0.957817615005 5:-0.76887511894 6:0.632383589461 7:0.980353913883 8:0.792777599347 9:-0.558984380146 10:-0.475609030418 11:-0.505120723551 12:-0.424093840452 13:0.548676661789 # gbr, 1996
4 qid:1 1:0.0848823768201 2:-0.509416229498 3:-1.50900771548 4:0.999731219031 5:-0.91488752872 6:0.684811126473 7:1.0709119031 8:0.542508934521 9:-0.758912954348 10:-0.891067738465 11:-0.49376028544 12:-0.419390698962 13:0.958134631872 # gbr, 1997
3 qid:1 1:0.0848823768201 2:-0.163229911626 3:-1.55759092628 4:0.579319592028 5:-0.0959668113524 6:-0.276009127834 7:0.924400438052 8:0.161734152137 9:-0.733918017205 10:-1.23098841773 11:-0.362366293031 12:-0.315811616914 13:0.58476504632 # gbr, 1998
4 qid:1 1:0.0848823768201 2:0.05000716137 3:0.614470883336 4:1.03643218761 5:0.41784548378 6:-0.317828838798 7:0.575005718613 8:0.158360672554 9:-0.683232138318 10:-1.30652626642 11:-0.199350910391 12:-0.195709091852 13:0.285135910499 # gbr, 1999
2 qid:1 1:0.0848823768201 2:0.632304470316 3:0.338663090339 4:1.20435351356 5:0.662958080399 6:1.07590382316 7:0.973181296204 8:0.604644815798 9:-0.950563094623 10:-1.45760214388 11:-0.106606332484 12:-0.121551606499 13:0.963777797702 # gbr, 2000
2 qid:1 1:0.0848823768201 2:0.676588672964 3:-0.340898342734 4:0.472166304025 5:0.9206308934 6:-0.475054483463 7:0.0465413941654 8:0.556033975388 9:-0.66041483998 10:-1.75975389881 11:0.000809999354254 12:0.110060168803 13:-0.0739707954006 # gbr, 2001
4 qid:1 1:0.0848823768201 2:0.540640970145 3:-0.172516779832 4:0.509573545545 5:1.19818721628 6:-0.578250910573 7:0.121943181291 8:0.341423025321 9:-0.624078357439 10:-1.60867802134 11:0.149702411234 12:0.956066269683 13:-0.0213959852514 # gbr, 2002
3 qid:1 1:0.0848823768201 2:0.542841732392 3:-1.54401176798 4:0.49084036489 5:0.918789162933 6:-0.369959979706 7:-0.374460523546 8:0.182795840907 9:-0.683163266337 10:-1.72198479437 11:0.313898641159 12:1.06196807277 13:0.766774475869 # gbr, 2003
3 qid:1 1:0.0848823768201 2:1.4310663675 3:-3.45082735217 4:0.289661472395 5:1.20449981707 6:0.0727746280337 7:0.466809050122 8:0.162400435815 9:-0.644723084804 10:-1.79752282315 11:0.714848558305 12:1.35563761484 13:0.397040570492 # gbr, 2004
3 qid:1 1:0.0848823768201 2:1.65913604377 3:-2.57995066662 4:0.14156334024 5:1.24772402761 6:1.00035997423 7:0.462720299529 8:0.545628220849 9:-0.723579257772 10:-1.75975389881 11:1.17155851724 12:1.68444783258 13:0.426421668822 # gbr, 2005
3 qid:1 1:-1.77084077032 2:1.50205781675 3:-1.93871263586 4:-0.285408824288 5:1.13630911903 6:1.65257446889 7:1.06624549489 8:1.08157937373 9:-0.546861790952 10:-1.49537106822 11:1.35956030291 12:1.81634776083 13:0.197748074394 # gbr, 2006
-1 qid:1 1:0.263231456461 2:4.95637461825 3:-0.997224327163 4:0.114368621816 5:1.11396116462 6:-1.44890381926 7:-1.20335114497 8:0.525339402239 9:-0.656262856637 10:-1.53313999256 11:1.52885428161 12:1.92678508058 13:0.518140652183 # gbr, 2007
-5 qid:1 1:2.65661128926 2:2.78037253583 3:-0.902170219073 4:-1.40789663883 5:0.898719857017 6:-0.763490152997 7:-1.23773934338 8:1.21000137345 9:-0.483434762952 10:-1.53313999256 11:1.56132752944 12:1.94060430862 13:-1.48203369262 # gbr, 2008
2 qid:1 1:2.28958893928 2:1.19843746069 3:1.24062096043 4:-2.41585869586 5:0.537372598868 6:-2.90924755948 7:-3.00947573165 8:0.861759082873 9:-0.671192065639 10:-0.626685087977 11:1.44239650925 12:1.83202920176 13:-3.57952946546 # gbr, 2009
1 qid:1 1:-1.7119602006 2:0.779281158011 3:-0.276925419194 4:-0.628195679268 5:0.88844273514 6:0.474898645676 7:0.646263294244 8:1.3975277022 9:-0.499739026658 10:-0.588915983539 11:1.54912469903 12:1.89896828204 13:-0.324250313325 # gbr, 2010
0 qid:1 1:3.15897925931 2:0.592612545658 3:-0.0665993451036 4:-1.13300818961 5:0.452676029327 6:-0.0132562516698 7:-0.843491730727 8:1.82697089882 9:-0.654794085657 10:-0.588915983539 11:1.54054167501 12:1.87829109132 13:-0.582746974683 # gbr, 2011
2 qid:1 1:-2.9017723101 2:0.237316218215 3:-1.88831887062 4:-0.689902297096 5:0.8451395074 6:-0.61412638892 7:-0.238025682504 8:1.83397513173 9:-0.88839004233 10:-0.551147059197 11:1.17723516835 12:1.58422979828 13:-0.98293119619 # gbr, 2012
