10.1561171365
10.6957130042
7.93719196941
9.09396567949
-0.0796448940796
2.99502009848
16.2419570079
13.565703402
7.30732962105
11.2242838692
13.6608389689
3.34254311529
6.8402583203
3.31834340378
1.31585387555
-0.00796712214951
4.82151427655
6.28479865952
6.87129269307
5.14785828032
1.80883645037
3.510820987
0.903754722817
3.44782256731
4.79143318012
7.18768721621
2.02414119886
0.869138093479
6.83546980915
7.69937903013
5.62779509354
5.55687215236
6.93182586384
6.52788188589
5.49004226926
3.37152136178
4.11740999463
3.35587090115
9.25487811508
-0.223359908002
-0.575534253154
1.51218479121
4.84431788652
4.94043515068
5.59422763132
6.92120999597
4.45357999643
1.24788000577
5.66445000004
4.57352879765
3.35185000396
3.31
0.0
