2 qid:1 1:-0.158346296879 2:-0.546434527121 3:-0.436875465696 4:-0.696204694754 5:1.35387859701 6:1.73051452712 7:-1.54152011214 8:-1.79568338166 9:0.503575088137 10:0.929507393612 11:2.27183122003 12:1.18270426719 13:-0.575315074992 # kor, 1961
10 qid:1 1:-0.158346296879 2:-0.546434527121 3:-0.436875465696 4:-0.228709157542 5:1.69321324728 6:-0.288416828452 7:1.48909569629 8:-1.7417409285 9:1.01656325871 10:0.929507393612 11:2.12488142257 12:1.2654652043 13:-1.17590809186 # kor, 1962
8 qid:1 1:-0.158346296879 2:-0.546434527121 3:-0.436875465696 4:-0.713080734145 5:1.61471898987 6:-0.616073564129 7:0.988749795968 8:-1.78990027476 9:2.19683142706 10:0.929507393612 11:2.0234400703 12:1.20953891507 13:0.538475664714 # kor, 1963
5 qid:1 1:-0.158346296879 2:-0.546434527121 3:-0.436875465696 4:1.27673526777 5:1.01132931765 6:0.549663348929 7:-2.60646151478 8:-1.85010163579 9:2.72243148458 10:0.929507393612 11:1.79274787704 12:1.11493073396 13:0.060886229938 # kor, 1964
13 qid:1 1:-0.158346296879 2:-0.546434527121 3:-0.436875465696 4:-0.222370082318 5:0.98811169873 6:1.52080450324 7:-0.00951996807617 8:-1.61270648415 9:-0.401241723923 10:0.929507393612 11:1.69301817637 12:1.05760343046 13:-0.513801587747 # kor, 1965
6 qid:1 1:-0.158346296879 2:-0.546434527121 3:-0.436875465696 4:0.0882991894925 5:1.41917653358 6:2.03475186427 7:3.06023401311 8:-1.34198140439 9:0.490972736423 10:0.929507393612 11:1.65521495191 12:1.02614442216 13:1.30637741403 # kor, 1966
12 qid:1 1:-0.158346296879 2:-0.546434527121 3:-0.436875465696 4:-0.319005023384 5:1.55535041751 6:1.27154104977 7:1.2674018886 8:-1.21450482483 9:0.740201258154 10:0.929507393612 11:1.41097697542 12:1.73613997398 13:-0.293267823372 # kor, 1967
14 qid:1 1:-0.158346296879 2:-0.546434527121 3:-0.436875465696 4:0.48224428412 5:1.92324078099 6:1.811751464 7:2.16731927872 8:-1.00322824815 9:0.720857596499 10:0.929507393612 11:1.39101215629 12:1.94452047636 13:1.06395964798 # kor, 1968
13 qid:1 1:-0.158346296879 2:-0.546434527121 3:-0.436875465696 4:2.86436225788 5:1.78349585955 6:1.54982412094 7:0.971916102198 8:-0.979962591681 9:0.562207454998 10:0.929507393612 11:1.31351304321 12:1.84062487798 13:1.64571566528 # kor, 1969
10 qid:1 1:-0.158346296879 2:-0.546434527121 3:-0.436875465696 4:3.13857617947 5:1.33818223159 6:0.2307109709 7:-0.336088487203 8:-1.10160069476 9:1.22174216083 10:0.929507393612 11:1.20559131111 12:1.73526761873 13:1.34722486343 # kor, 1970
7 qid:1 1:-0.158346296879 2:-0.546434527121 3:-0.436875465696 4:0.494655975729 5:1.40590872215 6:0.398442700316 7:0.444036410245 8:-0.967801603253 9:0.263695918061 10:0.929507393612 11:0.915771160162 12:1.10824600863 13:0.758913763142 # kor, 1971
15 qid:1 1:-0.158346296879 2:-0.546434527121 3:-0.436875465696 4:-0.481747309943 5:0.455897896716 6:1.62509750066 7:-0.856553634975 8:-0.839232060985 9:0.720804415085 10:0.929507393612 11:0.785976178087 12:0.869446496458 13:-0.193701134857 # kor, 1972
9 qid:1 1:-0.158346296879 2:-0.546434527121 3:-0.436875465696 4:0.93494569969 5:0.186130688402 6:3.12526148576 7:1.60664754541 8:-0.1159524725 9:0.36924893877 10:0.929507393612 11:0.639321175395 12:0.77868669432 13:1.8123327722 # kor, 1973
7 qid:1 1:-0.158346296879 2:-0.546434527121 3:-0.436875465696 4:-0.425398277533 5:1.48824117401 6:-1.47994475984 7:0.308439501456 8:0.0592837206586 9:2.42915479262 10:0.929507393612 11:0.563632683556 12:0.715218028802 13:0.502165243353 # kor, 1974
13 qid:1 1:-0.158346296879 2:-0.546434527121 3:-0.436875465696 4:0.0688359987233 5:1.0587887541 6:0.159041546259 7:-0.751745012169 8:-0.0411988207236 9:1.72076897557 10:0.929507393612 11:0.521823797088 12:0.662362102663 13:0.00664501506196 # kor, 1975
12 qid:1 1:-0.158346296879 2:-0.546434527121 3:-0.436875465696 4:0.553687202494 5:-0.00346367398264 6:1.80874219979 7:0.856486519133 8:-0.0493470194804 9:1.34360753937 10:0.929507393612 11:0.405485420931 12:0.796036415385 13:1.48952611071 # kor, 1976
10 qid:1 1:-0.158346296879 2:-0.546434527121 3:-0.436875465696 4:-0.101980533117 5:-0.191752235955 6:0.388209049947 7:0.561157061228 8:-0.0695437805371 9:0.588819817177 10:0.929507393612 11:0.354398703737 12:0.789344072918 13:1.09254605492 # kor, 1977
8 qid:1 1:-0.158346296879 2:-0.546434527121 3:-0.436875465696 4:-0.0180483046319 5:0.279963476994 6:-0.198573029143 7:1.05790970371 8:-0.113456457971 9:1.46283470216 10:0.929507393612 11:0.30014832977 12:0.717391181114 13:0.724100093486 # kor, 1978
-2 qid:1 1:-0.158346296879 2:-0.546434527121 3:-0.436875465696 4:-0.129566281143 5:0.818691286322 6:-1.16980290367 7:-0.0520086236246 8:-0.132567983716 9:1.02692636014 10:0.929507393612 11:0.29698686236 12:0.658656274157 13:0.261682626155 # kor, 1979
7 qid:1 1:-0.158346296879 2:-0.546434527121 3:-0.436875465696 4:-0.949381381044 5:0.957403995193 6:-0.678585979991 7:-1.25152810161 8:0.377732561111 9:1.71580670053 10:0.929507393612 11:0.353613449686 12:0.623969050794 13:-2.23000717461 # kor, 1980
8 qid:1 1:-0.158346296879 2:-0.546434527121 3:-0.436875465696 4:0.0602782028421 5:0.546398534565 6:-0.0576169512896 7:-0.456647694149 8:0.445992865364 9:0.890542835587 10:0.327874277049 11:0.355984449258 12:0.540573152528 13:0.0227877214584 # kor, 1981
12 qid:1 1:-0.158346296879 2:-0.546434527121 3:-0.436875465696 4:0.159140725877 5:0.0789972789347 6:-0.675726099271 7:-0.625536799591 8:0.221816967737 9:-0.433220277521 10:0.241926747515 11:0.335920426534 12:0.470136478538 13:0.237834209224 # kor, 1982
10 qid:1 1:-0.158346296879 2:-0.546434527121 3:-0.436875465696 4:0.819816945916 5:-0.15118088377 6:-0.191296501218 7:-0.18255704579 8:0.139343805922 9:-0.582611947663 10:-0.0159162509148 11:0.238905748535 12:0.386062293746 13:1.18083039119 # kor, 1983
7 qid:1 1:-0.158346296879 2:-0.546434527121 3:-0.436875465696 4:0.0610487773981 5:-0.284694634418 6:-0.674649940555 7:-0.342343964969 8:0.133875741704 9:-0.632837404426 10:-0.27375904443 11:-0.0881548731795 12:0.225929866518 13:0.617816100533 # kor, 1984
12 qid:1 1:-0.158346296879 2:-0.546434527121 3:-0.436875465696 4:0.287137052463 5:-0.424349227882 6:-0.996273614979 7:-0.856211875912 8:-0.0242339240447 9:-0.662300256839 10:-0.101863780448 11:-0.427813435657 12:0.0580963381257 13:0.0390063759566 # kor, 1985
12 qid:1 1:-0.158346296879 2:-0.546434527121 3:-0.436875465696 4:0.753128986935 5:-1.14294973285 6:0.804174068314 7:0.397475893653 8:0.0912763618485 9:-0.65976383707 10:-0.27375904443 11:-0.413981781392 12:0.193212192119 13:1.19483729977 # kor, 1986
12 qid:1 1:-0.158346296879 2:-0.546434527121 3:-0.436875465696 4:0.474001023601 5:-1.46318042185 6:0.403960824201 7:0.476732365067 8:0.222702740478 9:-0.593839201214 10:-0.875392365908 11:-0.427040698279 12:0.209528650096 13:1.20119009287 # kor, 1987
7 qid:1 1:-0.158346296879 2:-0.546434527121 3:-0.436875465696 4:0.555759463501 5:-1.47377988563 6:-0.399871190595 7:0.0670200381111 8:0.060849937763 9:-0.367258260858 10:-1.39107795294 11:-0.435133985829 12:0.134161250744 13:1.05440957506 # kor, 1988
9 qid:1 1:-0.158346296879 2:-0.546434527121 3:-0.436875465696 4:0.555352017657 5:-0.65909655645 6:-1.64205572813 7:0.328864714257 8:-0.200343902366 9:-0.481712175303 10:-1.3051304234 11:-0.421648490343 12:0.065053338407 13:-0.135235381112 # kor, 1989
10 qid:1 1:-0.158346296879 2:-1.02068435832 3:-0.436875465696 4:-0.0249629224962 5:-0.156799278895 6:-0.972650422602 7:0.0702001785215 8:-0.308483990035 9:0.0668498280625 10:-1.39107795294 11:-0.427044263267 12:-0.00334994918951 13:0.481666009448 # kor, 1990
6 qid:1 1:-0.158346296879 2:-1.04119054949 3:-0.436875465696 4:0.659209850288 5:0.0969463461521 6:-0.446679619929 7:0.412710138521 8:-0.376102017672 9:0.046490685285 10:-1.47702548247 11:-0.420705281424 12:-0.372669228412 13:0.582385607905 # kor, 1991
6 qid:1 1:-0.158346296879 2:-0.893275088245 3:-0.436875465696 4:0.199248356463 5:-0.143525310929 6:-0.356767404973 7:-0.520190565954 8:-0.420282000152 9:-0.232316324438 10:-1.39107795294 11:-0.353475030922 12:-0.529933673984 13:-0.374414128452 # kor, 1992
9 qid:1 1:-0.158346296879 2:-0.433276076343 3:-0.436875465696 4:-0.163946530186 5:-0.39156384404 6:-0.360809650311 7:-0.479945544477 8:-0.496887948813 9:-0.399664735227 10:-1.04728742497 11:-0.38525501403 12:-0.560226788468 13:-0.237678353461 # kor, 1993
9 qid:1 1:-0.158346296879 2:-0.253903135867 3:-0.436875465696 4:0.404237553817 5:-0.210572491899 6:-0.0329584521477 7:0.600805464776 8:-0.441826027742 9:-0.25106267222 10:-1.39107795294 11:-0.398413923565 12:-0.58069166311 13:0.354314697446 # kor, 1994
7 qid:1 1:-0.158346296879 2:-0.88234415579 3:-0.436875465696 4:1.00957548167 5:-0.154343087857 6:0.61091755754 7:0.715232320134 8:-0.238583325394 9:-0.279093662764 10:-1.7348684809 11:-0.398354544134 12:-0.59742409083 13:0.392786698386 # kor, 1995
6 qid:1 1:-0.158346296879 2:-0.962552105705 3:-0.436875465696 4:0.0766775541594 5:0.226286149278 6:-0.359942749712 7:0.108473207912 8:-0.220660086384 9:-0.571127335392 10:-1.82081601043 11:-0.471093969303 12:-0.839020151544 13:-0.0300814076817 # kor, 1996
-6 qid:1 1:-0.158346296879 2:-0.934327827263 3:-0.322460284571 4:-0.485083764204 5:-0.232908748843 6:0.391729798372 7:-0.655557182193 8:0.0315398340322 9:-0.703969849014 10:-1.3051304234 11:-0.491607534152 12:-0.952099226141 13:-0.374049740138 # kor, 1997
11 qid:1 1:-0.158346296879 2:-0.762981825299 3:-0.605995913899 4:-4.0098463466 5:-2.37139014836 6:-0.321237676912 7:-2.43252115809 8:0.61019080913 9:-0.574203612335 10:2.47656456453 11:-0.785510490401 12:-1.05356808068 13:-3.15663384591 # kor, 1998
9 qid:1 1:-0.158346296879 2:2.05462318987 3:-0.789642044769 4:0.905881523381 5:-1.38824926748 6:-0.164754551944 7:1.05603711425 8:0.268886816208 9:-1.28089333863 10:1.87493144797 11:-0.800584146713 12:-1.05966365625 13:0.829047733855 # kor, 1999
5 qid:1 1:-0.158346296879 2:2.49174685757 3:-0.699741496158 4:0.577748438695 5:-0.687196184836 6:0.194510055893 7:0.511725170725 8:0.383806746313 9:-1.04583950632 10:0.241926747515 11:-0.62985631654 12:-1.00355847852 13:0.3687080109 # kor, 2000
7 qid:1 1:-0.158346296879 2:1.24356179135 3:-0.338715215175 4:-0.230277656441 5:-0.597827863852 6:-1.50797888135 7:-1.15455758762 8:0.199524924751 9:-0.727710433677 10:-0.101863780448 11:-0.76052804831 12:-1.0009017215 13:-0.674935361209 # kor, 2001
3 qid:1 1:-0.158346296879 2:1.20080679141 3:-0.478479136642 4:0.686432301673 5:-0.588518162307 6:-0.291105040404 7:0.156647836478 8:0.0279722489731 9:-0.797242526098 10:-0.703497101926 11:-1.00913398381 12:-1.06270083512 13:0.0296673963895 # kor, 2002
5 qid:1 1:-0.158346296879 2:0.561628385195 3:-0.313061313433 4:-1.26259903637 5:-0.676959109937 6:-0.222718374014 7:-0.152075492685 8:0.175871344079 9:-0.75780620964 10:-0.445654308411 11:-1.09208656109 12:-1.09506731582 13:-1.06081867157 # kor, 2003
4 qid:1 1:-0.158346296879 2:0.200842892864 3:0.0881445519596 4:-1.07184730321 5:-0.991324138107 6:0.311931411823 7:-0.0322952603119 8:0.603599231689 9:-0.806250981146 10:-0.359706573963 11:-1.25697195282 12:-1.15335664129 13:-0.584159328398 # kor, 2004
5 qid:1 1:-0.158346296879 2:1.28394360075 3:0.309447599662 4:-0.274966199922 5:-0.750236525879 6:-0.705448299811 7:-0.349727624061 8:0.53160591567 9:-1.03639219544 10:-0.359706573963 11:-1.48905484627 12:-1.23657859328 13:-0.820754063204 # kor, 2005
5 qid:1 1:-1.56723614671 2:1.25188760568 3:0.75176887776 4:-0.234686782482 5:-0.464191314565 6:-0.366375418689 7:-0.0300558805729 8:0.639681122139 9:-1.17446183288 10:-0.617549367478 11:-1.10850166299 12:-1.19902055974 13:-0.517196221295 # kor, 2006
3 qid:1 1:-0.433160422788 2:2.18391343469 3:1.16103100413 4:-0.198235122129 5:-0.52388962364 6:-0.320912062056 7:-0.0800144565611 8:0.808235400286 9:-0.875423320926 10:-0.78944463146 11:-1.13455379717 12:-1.2531122398 13:-0.447569536596 # kor, 2007
1 qid:1 1:-3.79105571245 2:1.54893309631 3:1.46731132985 4:-1.07177621878 5:-0.327222834492 6:-0.73087253341 7:-0.673978630842 8:1.84424037947 9:-0.809481585178 10:-0.78944463146 11:-0.788383103939 12:-1.13679974083 13:-1.08602355406 # kor, 2008
6 qid:1 1:3.08298924669 2:2.17343998347 3:1.87488489646 4:-1.1356595605 5:-1.13971629419 6:-1.35229146522 7:-1.37376494776 8:1.40953445722 9:-0.740455554447 10:-0.445654308411 11:-1.1208687386 12:-1.24919582449 13:-1.60026302827 # kor, 2009
4 qid:1 1:1.11399358999 2:1.59921823333 3:2.23410055314 4:-0.430360294512 5:-0.879934251279 6:-0.317644484855 7:0.31479258678 8:1.64884906409 9:-0.785344308489 10:-0.359706573963 11:-1.1377447024 12:-1.25553138189 13:-0.197107490321 # kor, 2010
2 qid:1 1:0.0410715624161 2:2.03839597914 3:2.84723083919 4:-0.692168729699 5:-0.587635073029 6:-0.124063196636 7:0.110109410553 8:2.30385741627 9:-0.971207608009 10:-0.617549367478 11:-0.755125102893 12:-1.12633808529 13:-0.879403886522 # kor, 2011
3 qid:1 1:2.89299374746 2:1.06606485573 3:2.84723083919 4:-0.863484157496 5:-0.812374570421 6:-0.922373480091 7:-0.729652221664 8:2.29866007987 9:-1.03498385728 10:-0.78944463146 11:-1.15435512478 12:-1.25960137091 13:-1.21613655076 # kor, 2012
