2.45836065945;-0.158346296879;-0.546434527121;-0.436875465696;-0.696204694754;1.35387859701;1.73051452712;-1.54152011214;-1.79568338166;0.503575088137;0.929507393612;2.27183122003;1.18270426719;-0.575315074992;
9.53172102542;-0.158346296879;-0.546434527121;-0.436875465696;-0.228709157542;1.69321324728;-0.288416828452;1.48909569629;-1.7417409285;1.01656325871;0.929507393612;2.12488142257;1.2654652043;-1.17590809186;
7.56123911541;-0.158346296879;-0.546434527121;-0.436875465696;-0.713080734145;1.61471898987;-0.616073564129;0.988749795968;-1.78990027476;2.19683142706;0.929507393612;2.0234400703;1.20953891507;0.538475664714;
5.1901398695;-0.158346296879;-0.546434527121;-0.436875465696;1.27673526777;1.01132931765;0.549663348929;-2.60646151478;-1.85010163579;2.72243148458;0.929507393612;1.79274787704;1.11493073396;0.060886229938;
12.6999998765;-0.158346296879;-0.546434527121;-0.436875465696;-0.222370082318;0.98811169873;1.52080450324;-0.00951996807617;-1.61270648415;-0.401241723923;0.929507393612;1.69301817637;1.05760343046;-0.513801587747;
6.10003812437;-0.158346296879;-0.546434527121;-0.436875465696;0.0882991894925;1.41917653358;2.03475186427;3.06023401311;-1.34198140439;0.490972736423;0.929507393612;1.65521495191;1.02614442216;1.30637741403;
11.6998106179;-0.158346296879;-0.546434527121;-0.436875465696;-0.319005023384;1.55535041751;1.27154104977;1.2674018886;-1.21450482483;0.740201258154;0.929507393612;1.41097697542;1.73613997398;-0.293267823372;
14.1000724844;-0.158346296879;-0.546434527121;-0.436875465696;0.48224428412;1.92324078099;1.811751464;2.16731927872;-1.00322824815;0.720857596499;0.929507393612;1.39101215629;1.94452047636;1.06395964798;
12.8685319968;-0.158346296879;-0.546434527121;-0.436875465696;2.86436225788;1.78349585955;1.54982412094;0.971916102198;-0.979962591681;0.562207454998;0.929507393612;1.31351304321;1.84062487798;1.64571566528;
10.441224573;-0.158346296879;-0.546434527121;-0.436875465696;3.13857617947;1.33818223159;0.2307109709;-0.336088487203;-1.10160069476;1.22174216083;0.929507393612;1.20559131111;1.73526761873;1.34722486343;
6.51083941995;-0.158346296879;-0.546434527121;-0.436875465696;0.494655975729;1.40590872215;0.398442700316;0.444036410245;-0.967801603253;0.263695918061;0.929507393612;0.915771160162;1.10824600863;0.758913763142;
14.7875164921;-0.158346296879;-0.546434527121;-0.436875465696;-0.481747309943;0.455897896716;1.62509750066;-0.856553634975;-0.839232060985;0.720804415085;0.929507393612;0.785976178087;0.869446496458;-0.193701134857;
9.38190818781;-0.158346296879;-0.546434527121;-0.436875465696;0.93494569969;0.186130688402;3.12526148576;1.60664754541;-0.1159524725;0.36924893877;0.929507393612;0.639321175395;0.77868669432;1.8123327722;
7.33744577974;-0.158346296879;-0.546434527121;-0.436875465696;-0.425398277533;1.48824117401;-1.47994475984;0.308439501456;0.0592837206586;2.42915479262;0.929507393612;0.563632683556;0.715218028802;0.502165243353;
13.4556514202;-0.158346296879;-0.546434527121;-0.436875465696;0.0688359987233;1.0587887541;0.159041546259;-0.751745012169;-0.0411988207236;1.72076897557;0.929507393612;0.521823797088;0.662362102663;0.00664501506196;
11.8177550146;-0.158346296879;-0.546434527121;-0.436875465696;0.553687202494;-0.00346367398264;1.80874219979;0.856486519133;-0.0493470194804;1.34360753937;0.929507393612;0.405485420931;0.796036415385;1.48952611071;
10.2975871697;-0.158346296879;-0.546434527121;-0.436875465696;-0.101980533117;-0.191752235955;0.388209049947;0.561157061228;-0.0695437805371;0.588819817177;0.929507393612;0.354398703737;0.789344072918;1.09254605492;
8.38970314231;-0.158346296879;-0.546434527121;-0.436875465696;-0.0180483046319;0.279963476994;-0.198573029143;1.05790970371;-0.113456457971;1.46283470216;0.929507393612;0.30014832977;0.717391181114;0.724100093486;
-1.89073716949;-0.158346296879;-0.546434527121;-0.436875465696;-0.129566281143;0.818691286322;-1.16980290367;-0.0520086236246;-0.132567983716;1.02692636014;0.929507393612;0.29698686236;0.658656274157;0.261682626155;
7.4040488254;-0.158346296879;-0.546434527121;-0.436875465696;-0.949381381044;0.957403995193;-0.678585979991;-1.25152810161;0.377732561111;1.71580670053;0.929507393612;0.353613449686;0.623969050794;-2.23000717461;
8.29130717556;-0.158346296879;-0.546434527121;-0.436875465696;0.0602782028421;0.546398534565;-0.0576169512896;-0.456647694149;0.445992865364;0.890542835587;0.327874277049;0.355984449258;0.540573152528;0.0227877214584;
12.1820065555;-0.158346296879;-0.546434527121;-0.436875465696;0.159140725877;0.0789972789347;-0.675726099271;-0.625536799591;0.221816967737;-0.433220277521;0.241926747515;0.335920426534;0.470136478538;0.237834209224;
9.85907100875;-0.158346296879;-0.546434527121;-0.436875465696;0.819816945916;-0.15118088377;-0.191296501218;-0.18255704579;0.139343805922;-0.582611947663;-0.0159162509148;0.238905748535;0.386062293746;1.18083039119;
7.47096522465;-0.158346296879;-0.546434527121;-0.436875465696;0.0610487773981;-0.284694634418;-0.674649940555;-0.342343964969;0.133875741704;-0.632837404426;-0.27375904443;-0.0881548731795;0.225929866518;0.617816100533;
12.2397975324;-0.158346296879;-0.546434527121;-0.436875465696;0.287137052463;-0.424349227882;-0.996273614979;-0.856211875912;-0.0242339240447;-0.662300256839;-0.101863780448;-0.427813435657;0.0580963381257;0.0390063759566;
12.2660084638;-0.158346296879;-0.546434527121;-0.436875465696;0.753128986935;-1.14294973285;0.804174068314;0.397475893653;0.0912763618485;-0.65976383707;-0.27375904443;-0.413981781392;0.193212192119;1.19483729977;
11.6604080588;-0.158346296879;-0.546434527121;-0.436875465696;0.474001023601;-1.46318042185;0.403960824201;0.476732365067;0.222702740478;-0.593839201214;-0.875392365908;-0.427040698279;0.209528650096;1.20119009287;
6.75206274216;-0.158346296879;-0.546434527121;-0.436875465696;0.555759463501;-1.47377988563;-0.399871190595;0.0670200381111;0.060849937763;-0.367258260858;-1.39107795294;-0.435133985829;0.134161250744;1.05440957506;
9.29733058488;-0.158346296879;-0.546434527121;-0.436875465696;0.555352017657;-0.65909655645;-1.64205572813;0.328864714257;-0.200343902366;-0.481712175303;-1.3051304234;-0.421648490343;0.065053338407;-0.135235381112;
9.71288866111;-0.158346296879;-1.02068435832;-0.436875465696;-0.0249629224962;-0.156799278895;-0.972650422602;0.0702001785215;-0.308483990035;0.0668498280625;-1.39107795294;-0.427044263267;-0.00334994918951;0.481666009448;
5.76523732146;-0.158346296879;-1.04119054949;-0.436875465696;0.659209850288;0.0969463461521;-0.446679619929;0.412710138521;-0.376102017672;0.046490685285;-1.47702548247;-0.420705281424;-0.372669228412;0.582385607905;
6.32939421324;-0.158346296879;-0.893275088245;-0.436875465696;0.199248356463;-0.143525310929;-0.356767404973;-0.520190565954;-0.420282000152;-0.232316324438;-1.39107795294;-0.353475030922;-0.529933673984;-0.374414128452;
8.77189296368;-0.158346296879;-0.433276076343;-0.436875465696;-0.163946530186;-0.39156384404;-0.360809650311;-0.479945544477;-0.496887948813;-0.399664735227;-1.04728742497;-0.38525501403;-0.560226788468;-0.237678353461;
8.93062424284;-0.158346296879;-0.253903135867;-0.436875465696;0.404237553817;-0.210572491899;-0.0329584521477;0.600805464776;-0.441826027742;-0.25106267222;-1.39107795294;-0.398413923565;-0.58069166311;0.354314697446;
7.1859165658;-0.158346296879;-0.88234415579;-0.436875465696;1.00957548167;-0.154343087857;0.61091755754;0.715232320134;-0.238583325394;-0.279093662764;-1.7348684809;-0.398354544134;-0.59742409083;0.392786698386;
5.7667407479;-0.158346296879;-0.962552105705;-0.436875465696;0.0766775541594;0.226286149278;-0.359942749712;0.108473207912;-0.220660086384;-0.571127335392;-1.82081601043;-0.471093969303;-0.839020151544;-0.0300814076817;
-5.71389773412;-0.158346296879;-0.934327827263;-0.322460284571;-0.485083764204;-0.232908748843;0.391729798372;-0.655557182193;0.0315398340322;-0.703969849014;-1.3051304234;-0.491607534152;-0.952099226141;-0.374049740138;
10.7305896856;-0.158346296879;-0.762981825299;-0.605995913899;-4.0098463466;-2.37139014836;-0.321237676912;-2.43252115809;0.61019080913;-0.574203612335;2.47656456453;-0.785510490401;-1.05356808068;-3.15663384591;
8.8312782049;-0.158346296879;2.05462318987;-0.789642044769;0.905881523381;-1.38824926748;-0.164754551944;1.05603711425;0.268886816208;-1.28089333863;1.87493144797;-0.800584146713;-1.05966365625;0.829047733855;
4.52531949749;-0.158346296879;2.49174685757;-0.699741496158;0.577748438695;-0.687196184836;0.194510055893;0.511725170725;0.383806746313;-1.04583950632;0.241926747515;-0.62985631654;-1.00355847852;0.3687080109;
7.4324336137;-0.158346296879;1.24356179135;-0.338715215175;-0.230277656441;-0.597827863852;-1.50797888135;-1.15455758762;0.199524924751;-0.727710433677;-0.101863780448;-0.76052804831;-1.0009017215;-0.674935361209;
2.93320705304;-0.158346296879;1.20080679141;-0.478479136642;0.686432301673;-0.588518162307;-0.291105040404;0.156647836478;0.0279722489731;-0.797242526098;-0.703497101926;-1.00913398381;-1.06270083512;0.0296673963895;
4.89985150656;-0.158346296879;0.561628385195;-0.313061313433;-1.26259903637;-0.676959109937;-0.222718374014;-0.152075492685;0.175871344079;-0.75780620964;-0.445654308411;-1.09208656109;-1.09506731582;-1.06081867157;
3.9236874397;-0.158346296879;0.200842892864;0.0881445519596;-1.07184730321;-0.991324138107;0.311931411823;-0.0322952603119;0.603599231689;-0.806250981146;-0.359706573963;-1.25697195282;-1.15335664129;-0.584159328398;
5.17613398179;-0.158346296879;1.28394360075;0.309447599662;-0.274966199922;-0.750236525879;-0.705448299811;-0.349727624061;0.53160591567;-1.03639219544;-0.359706573963;-1.48905484627;-1.23657859328;-0.820754063204;
5.46340608762;-1.56723614671;1.25188760568;0.75176887776;-0.234686782482;-0.464191314565;-0.366375418689;-0.0300558805729;0.639681122139;-1.17446183288;-0.617549367478;-1.10850166299;-1.19902055974;-0.517196221295;
2.82921445738;-0.433160422788;2.18391343469;1.16103100413;-0.198235122129;-0.52388962364;-0.320912062056;-0.0800144565611;0.808235400286;-0.875423320926;-0.78944463146;-1.13455379717;-1.2531122398;-0.447569536596;
0.707518482608;-3.79105571245;1.54893309631;1.46731132985;-1.07177621878;-0.327222834492;-0.73087253341;-0.673978630842;1.84424037947;-0.809481585178;-0.78944463146;-0.788383103939;-1.13679974083;-1.08602355406;
6.49678516889;3.08298924669;2.17343998347;1.87488489646;-1.1356595605;-1.13971629419;-1.35229146522;-1.37376494776;1.40953445722;-0.740455554447;-0.445654308411;-1.1208687386;-1.24919582449;-1.60026302827;
3.68170466651;1.11399358999;1.59921823333;2.23410055314;-0.430360294512;-0.879934251279;-0.317644484855;0.31479258678;1.64884906409;-0.785344308489;-0.359706573963;-1.1377447024;-1.25553138189;-0.197107490321;
2.29238242637;0.0410715624161;2.03839597914;2.84723083919;-0.692168729699;-0.587635073029;-0.124063196636;0.110109410553;2.30385741627;-0.971207608009;-0.617549367478;-0.755125102893;-1.12633808529;-0.879403886522;
2.97111015596;2.89299374746;1.06606485573;2.84723083919;-0.863484157496;-0.812374570421;-0.922373480091;-0.729652221664;2.29866007987;-1.03498385728;-0.78944463146;-1.15435512478;-1.25960137091;-1.21613655076;
0.0;2.89299374746;1.06606485573;2.84723083919;-0.855811953555;-1.20476329946;-0.987554595845;-0.786580284007;1.97449169883;-1.07560871971;-0.78944463146;-1.18360709257;-1.26732025458;-1.05163202469;
