0 qid:1 1:-0.333235526344 2:-0.396840692321 3:-0.47857229344 4:-0.441888688828 5:1.57079895929 6:-0.389648858717 7:-0.356166421397 8:-1.56602322933 9:-0.835889108972 10:-0.419593174061 11:-1.15919403689 12:-1.23700698133 13:-0.905732718381 # mlt, 1961
0 qid:1 1:-0.333235526344 2:-0.396840692321 3:-0.47857229344 4:-0.441888688828 5:1.57079895929 6:-0.389648858717 7:-0.356166421397 8:-1.56602322933 9:-0.835889108972 10:-0.419593174061 11:-1.18319193866 12:-1.25784387065 13:-0.905732718381 # mlt, 1962
0 qid:1 1:-0.333235526344 2:-0.396840692321 3:-0.47857229344 4:-0.441888688828 5:1.57079895929 6:-0.389648858717 7:-0.356166421397 8:-1.56602322933 9:-0.835889108972 10:-0.419593174061 11:-1.185639456 12:-1.25897004511 13:-0.905732718381 # mlt, 1963
0 qid:1 1:-0.333235526344 2:-0.396840692321 3:-0.47857229344 4:-0.441888688828 5:1.57079895929 6:-0.389648858717 7:-0.356166421397 8:-1.56602322933 9:-0.835889108972 10:-0.419593174061 11:-1.16617758485 12:-1.24522816216 13:-0.905732718381 # mlt, 1964
0 qid:1 1:-0.333235526344 2:-0.396840692321 3:-0.47857229344 4:-0.441888688828 5:1.57079895929 6:-0.389648858717 7:-0.356166421397 8:-1.56602322933 9:-0.835889108972 10:-0.419593174061 11:-1.67579514827 12:-1.66410216925 13:-0.905732718381 # mlt, 1965
0 qid:1 1:-0.333235526344 2:-0.396840692321 3:-0.47857229344 4:-0.441888688828 5:1.57079895929 6:-0.389648858717 7:-0.356166421397 8:-1.56602322933 9:-0.835889108972 10:-0.419593174061 11:-2.19721033038 12:-2.09353438905 13:-0.905732718381 # mlt, 1966
0 qid:1 1:-0.333235526344 2:-0.396840692321 3:-0.47857229344 4:-0.441888688828 5:1.57079895929 6:-0.389648858717 7:-0.356166421397 8:-1.56602322933 9:-0.835889108972 10:-0.419593174061 11:-2.2381991076 12:-2.12840633941 13:-0.905732718381 # mlt, 1967
0 qid:1 1:-0.333235526344 2:-0.396840692321 3:-0.47857229344 4:-0.441888688828 5:1.57079895929 6:-0.389648858717 7:-0.356166421397 8:-1.56602322933 9:-0.835889108972 10:-0.419593174061 11:-2.25753821337 12:-2.09037844032 13:-0.905732718381 # mlt, 1968
0 qid:1 1:-0.333235526344 2:-0.396840692321 3:-0.47857229344 4:-0.441888688828 5:1.57079895929 6:-0.389648858717 7:-0.356166421397 8:-1.56602322933 9:-0.835889108972 10:-0.419593174061 11:-2.25418702864 12:-2.05117643382 13:-0.905732718381 # mlt, 1969
2 qid:1 1:-0.333235526344 2:-0.396840692321 3:-0.47857229344 4:-0.441888688828 5:1.57079895929 6:-0.389648858717 7:-0.356166421397 8:-1.56602322933 9:-0.835889108972 10:-0.419593174061 11:-1.36321162211 12:-1.31621286709 13:-0.905732718381 # mlt, 1970
6 qid:1 1:-0.333235526344 2:-0.396840692321 3:-0.47857229344 4:-0.441888688828 5:1.19954108685 6:-0.389648858717 7:-0.356166421397 8:-1.61178605008 9:-0.835889108972 10:-0.419593174061 11:-0.573920598066 12:-0.665952083544 13:-0.345558335003 # mlt, 1971
4 qid:1 1:-0.333235526344 2:-0.396840692321 3:-0.47857229344 4:0.552413913789 5:0.952460718906 6:0.0504694715975 7:0.237372662217 8:-1.63133383808 9:-1.5855614565 10:-0.419593174061 11:-0.713602674696 12:-0.782233920998 13:0.42698758657 # mlt, 1972
10 qid:1 1:-0.333235526344 2:-0.396840692321 3:-0.47857229344 4:-0.258390572587 5:0.663428294227 6:-0.199825587812 7:-0.170418851541 8:-0.798776154008 9:2.41636129657 10:-0.419593174061 11:-0.713698935471 12:-0.781012956103 13:0.0407145962584 # mlt, 1973
20 qid:1 1:-0.333235526344 2:-0.396840692321 3:-0.47857229344 4:1.19474400569 5:1.49764942959 6:0.651217428514 7:0.737668458402 8:0.961334548222 9:0.266774101841 10:-0.419593174061 11:-0.692333558547 12:-0.76351471488 13:1.38528487663 # mlt, 1974
17 qid:1 1:-0.333235526344 2:-0.396840692321 3:-0.47857229344 4:4.46052975535 5:0.131358052439 6:1.83817732525 7:2.5957310447 8:0.302111884711 9:1.07423861512 10:-0.419593174061 11:0.437482107876 12:0.165975894013 13:3.55927079609 # mlt, 1975
12 qid:1 1:-0.333235526344 2:-0.396840692321 3:-0.47857229344 4:1.16995113941 5:-0.0234105307448 6:1.40051587019 7:1.20973478504 8:0.381116149162 9:0.938333579281 10:-0.419593174061 11:0.119727663678 12:-0.0946830487658 13:2.97877486604 # mlt, 1976
11 qid:1 1:-0.333235526344 2:-0.396840692321 3:-0.47857229344 4:2.16780159087 5:0.217005365728 6:1.17090941787 7:1.18087508884 8:0.609878956207 9:0.895462115808 10:-0.419593174061 11:-0.0471991753294 12:-0.23207116134 13:1.87555986551 # mlt, 1977
10 qid:1 1:-0.333235526344 2:-0.396840692321 3:-0.47857229344 4:-1.06975642211 5:-0.429238738066 6:-0.100140807721 7:-1.27782947541 8:0.0527157676647 9:0.586308489762 10:-0.419593174061 11:0.869344671083 12:0.521666938432 13:1.64203741015 # mlt, 1978
7 qid:1 1:-0.333235526344 2:-0.396840692321 3:-0.47857229344 4:-1.1085480263 5:-0.602358151627 6:1.49630878781 7:0.73070281204 8:0.469428248604 9:1.41475884761 10:-0.419593174061 11:0.830857350317 12:0.491270184012 13:1.48900650768 # mlt, 1979
3 qid:1 1:-0.333235526344 2:-0.396840692321 3:-0.47857229344 4:0.317942456969 5:-0.578324588281 6:0.854430227298 7:1.04295776353 8:0.60933502135 9:3.91285506483 10:-0.419593174061 11:0.880168832066 12:0.530677114961 13:0.703513157409 # mlt, 1980
2 qid:1 1:-0.333235526344 2:-0.396840692321 3:-0.47857229344 4:-0.0111647762064 5:-0.324653146897 6:-2.22299731084 7:-1.84128218737 8:0.0115716846773 9:2.05032124199 10:-0.419593174061 11:0.438817244467 12:0.168289660675 13:-0.149753177188 # mlt, 1981
-1 qid:1 1:-0.333235526344 2:-0.396840692321 3:-0.47857229344 4:0.519536020986 5:0.361213008684 6:-2.54038253697 7:-0.990109028737 8:-0.616104821884 9:0.298269420049 10:-0.419593174061 11:2.42483766608 12:1.8040037921 13:-0.384258662768 # mlt, 1982
1 qid:1 1:-0.333235526344 2:-0.396840692321 3:-0.47857229344 4:-0.964776246229 5:0.251366287568 6:-0.962955886568 7:-1.77399530868 8:-0.813276413188 9:-1.21493996592 10:-0.419593174061 11:1.38860795384 12:0.94945371223 13:-1.04552406743 # mlt, 1983
3 qid:1 1:-0.333235526344 2:-0.396840692321 3:-0.47857229344 4:0.0902715216393 5:0.271693073002 6:-0.189327626438 7:-0.116355380712 8:-0.585234349745 9:-1.16291058286 10:-0.419593174061 11:-0.567785745087 12:-0.660765436784 13:-0.690616821401 # mlt, 1984
4 qid:1 1:-0.333235526344 2:-0.396840692321 3:-0.47857229344 4:0.558906061362 5:0.330557995185 6:0.25651869542 7:0.668576443141 8:-0.385436176686 9:-0.834536440246 10:-0.419593174061 11:1.87786639234 12:1.35217138335 13:-0.315588497978 # mlt, 1985
4 qid:1 1:-0.333235526344 2:-0.396840692321 3:-0.47857229344 4:-1.14765557906 5:-0.180599609852 6:0.197280427306 7:-0.691051817122 8:-0.616101238971 9:0.328962728355 10:-0.419593174061 11:1.75691326381 12:1.34454792265 13:-0.018855283913 # mlt, 1986
8 qid:1 1:-0.333235526344 2:-0.396840692321 3:-0.47857229344 4:-0.82727366322 5:-0.24022763994 6:0.941765093179 7:1.12208862131 8:-0.200836044923 9:0.140683870054 10:-0.419593174061 11:0.372975719379 12:0.258412760307 13:0.0325782493037 # mlt, 1987
8 qid:1 1:-0.333235526344 2:-0.396840692321 3:-0.47857229344 4:1.37767089871 5:-0.178771056849 6:0.0890346569952 7:0.939078037418 8:-0.105498102945 9:-0.340639160613 10:-0.419593174061 11:0.55955758752 12:0.409363395617 13:1.01499468358 # mlt, 1988
6 qid:1 1:-0.333235526344 2:-0.396840692321 3:-0.47857229344 4:1.34670786211 5:-0.0969949541541 6:0.689363006132 7:0.940555582447 8:0.0744231458286 9:-0.224546383476 10:-0.419593174061 11:0.774068190497 12:0.584559732045 13:0.961320160141 # mlt, 1989
6 qid:1 1:-0.333235526344 2:-0.396840692321 3:-0.47857229344 4:0.0818972815998 5:0.148801502216 6:1.02774135985 7:1.62012250204 8:0.489385237344 9:0.180897789735 10:-0.419593174061 11:0.781139562437 12:0.587608877679 13:0.53040973455 # mlt, 1990
5 qid:1 1:-0.333235526344 2:-0.396840692321 3:-0.47857229344 4:-0.262026044184 5:-0.0811710646952 6:0.271060799514 7:0.098597025309 8:0.521052662328 9:0.261591483623 10:-0.419593174061 11:0.810721246816 12:0.611914683686 13:0.522442938339 # mlt, 1991
4 qid:1 1:-0.333235526344 2:-0.396840692321 3:-0.47857229344 4:-0.376827633542 5:-0.432439591828 6:0.553369030948 7:-0.252177836078 8:0.740585711822 9:0.343785520916 10:-0.419593174061 11:0.78743137964 12:0.58987752223 13:0.165072182582 # mlt, 1992
6 qid:1 1:-0.333235526344 2:-0.396840692321 3:-0.47857229344 4:-0.878474017157 5:-0.201257388913 6:-0.0226120293107 7:0.169720167001 8:1.09502547564 9:0.0611473835837 10:-0.419593174061 11:0.739578500301 12:0.547713423578 13:0.117092117464 # mlt, 1993
6 qid:1 1:-0.333235526344 2:-0.396840692321 3:-0.47857229344 4:-0.614307918616 5:-0.152027827499 6:0.222158512623 7:0.415688754414 8:1.21246518413 9:0.346746093679 10:-0.419593174061 11:0.647773772485 12:0.472025287765 13:0.384251180699 # mlt, 1994
4 qid:1 1:-0.333235526344 2:-0.152026253286 3:-0.47857229344 4:2.31337355991 5:0.183521450461 6:-0.0289671297535 7:0.809261648643 8:1.11301783819 9:1.11437515649 10:-0.419593174061 11:0.353803571288 12:0.228426578027 13:0.542075294732 # mlt, 1995
5 qid:1 1:-0.333235526344 2:-0.196948614178 3:-0.47857229344 4:0.7781835566 5:0.171179401095 6:-1.59616491204 7:-1.64230855375 8:0.632229117527 9:-0.949935672491 10:-0.419593174061 11:0.257483720048 12:0.306860569543 13:-0.0434762171029 # mlt, 1996
5 qid:1 1:-0.333235526344 2:-0.0337276543936 3:-0.47857229344 4:0.683116066803 5:-0.336698002333 6:-0.467657845125 7:-0.139119384243 8:0.320605292444 9:-0.8224400241 10:-0.419593174061 11:0.363136554981 12:0.489405095964 13:0.294283424085 # mlt, 1997
5 qid:1 1:-0.333235526344 2:0.568017488477 3:-0.47857229344 4:1.02344047593 5:-0.579648823999 6:-0.697596629647 7:-0.324055431413 8:0.435925097158 9:-0.937979296874 10:-0.419593174061 11:0.25628009894 12:0.387352711966 13:0.26429416857 # mlt, 1998
7 qid:1 1:-0.333235526344 2:5.61820285052 3:-0.47857229344 4:0.634400548035 5:-0.596678889588 6:-0.920473127634 7:-0.701827790535 8:0.765404831402 9:-0.853379218085 10:-0.419593174061 11:0.0893099880195 12:0.237543448143 13:0.171700454966 # mlt, 1999
-2 qid:1 1:-0.333235526344 2:2.85474730923 3:-0.47857229344 4:0.612220794317 5:-0.341634094623 6:-0.695262036723 7:-0.779598497323 8:1.51800122719 9:0.595376947298 10:-0.419593174061 11:0.144733474405 12:0.270282457625 13:0.639706624804 # mlt, 2000
3 qid:1 1:-0.333235526344 2:0.384767385612 3:-0.47857229344 4:-0.625013413809 5:-0.906611471226 6:-1.39026654207 7:-2.34938115864 8:0.429890901868 9:0.233723052174 10:2.24605729841 11:0.144733474405 12:3.14242750597 13:-1.25952743476 # mlt, 2001
0 qid:1 1:-0.333235526344 2:0.403935337271 3:-0.47857229344 4:-0.835052498874 5:-1.50652310457 6:0.150213169085 7:-0.629537434777 8:0.399473319676 9:0.0277012672414 10:1.57964507751 11:0.144733474405 12:0.498717444999 13:-0.263928449848 # mlt, 2002
-1 qid:1 1:-0.333235526344 2:0.119768464821 3:-0.523214802043 4:-0.129288869987 5:-1.14971354686 6:-1.06026503454 7:-0.128242591525 8:0.190453025932 9:0.335646808208 10:3.57888332907 11:0.144733474405 12:0.384685203205 13:-0.8755809708 # mlt, 2003
4 qid:1 1:-0.333235526344 2:0.715252567844 3:1.08165145327 4:-0.447221586529 5:-0.903655040019 6:-0.339950403139 7:-0.0145112323077 8:0.259622966869 9:-0.596828879252 10:2.91247110817 11:0.144733474405 12:0.389873970013 13:-1.02060432075 # mlt, 2004
2 qid:1 1:-0.333235526344 2:1.32213347402 3:1.29400814569 4:-0.514674937072 5:-0.813959517892 6:-0.62727583003 7:-0.408156619413 8:0.163420215227 9:-0.0580208482549 10:2.91247110817 11:0.144733474405 12:0.3383731846 13:-0.0689816791765 # mlt, 2005
4 qid:1 1:-0.706948898616 2:2.36532303132 3:1.58554868952 4:-0.521792806676 5:-0.671217577308 6:0.656760415136 7:1.01011700687 8:1.03633110718 9:0.137449610627 10:1.57964507751 11:0.144733474405 12:0.0109208037927 13:-0.398079238246 # mlt, 2006
4 qid:1 1:1.3184343524 2:0.378277593785 3:1.37069573199 4:-0.642591774621 5:-0.886981891272 6:-0.367844693858 7:-0.496145939211 8:1.17434093433 9:0.158237039067 10:0.246819046844 11:0.144733474405 12:-0.0239922633441 13:0.0710910035425 # mlt, 2007
-3 qid:1 1:1.06656035306 2:0.145271562055 3:1.25911848682 4:0.0197704416394 5:-0.971523730754 6:-0.381071931028 7:-0.75402076214 8:1.01749050145 9:0.133548221416 10:-1.41921309427 11:0.144733474405 12:0.308426296731 13:-0.0154755695229 # mlt, 2008
4 qid:1 1:-0.228628522692 2:-0.307884353719 3:1.17244584008 4:-0.913465922713 5:-1.09695417303 6:-1.89683339862 7:-2.20378911053 8:0.208187657005 9:0.00412108632407 10:1.57964507751 11:0.144733474405 12:0.413004351692 13:-1.54489169705 # mlt, 2009
1 qid:1 1:0.143096570896 2:-0.231229575081 3:1.96544540773 4:-0.578759933022 5:-1.45869302681 6:1.69534301021 7:1.21457932469 8:0.844913626231 9:-0.542404044752 10:1.57964507751 11:0.144733474405 12:0.0929557493007 13:0.075832856001 # mlt, 2010
1 qid:1 1:2.65583315315 2:-0.0952110417419 3:2.19318605955 4:-0.578759933022 5:-1.5864495198 6:1.69534301021 7:1.21457932469 8:1.24621953661 9:1.7636869774 10:0.246819046844 11:0.144733474405 12:0.000632399583833 13:-0.586153229047 # mlt, 2011
3 qid:1 1:3.58241722576 2:-0.122028677886 3:2.90038377061 4:-0.578759933022 5:-1.5864495198 6:1.69534301021 7:1.21457932469 8:1.24621953661 9:-0.210037610398 10:-0.0863870636085 11:0.144733474405 12:0.381573190991 13:-0.65463454819 # mlt, 2012
