3 qid:1 1:0.366014302782 2:-0.610706866491 3:-0.00294286828428 4:0.72120559975 5:0.837829904315 6:0.744911297854 7:1.00254016828 8:-0.211740083309 9:-0.658736062335 10:-0.994341201402 11:0.42125916591 12:1.36667433732 13:1.6562521097 # nor, 1961
4 qid:1 1:0.366014302782 2:-0.610706866491 3:-0.00294286828428 4:0.72120559975 5:0.837829904315 6:0.538931085793 7:0.174710370197 8:-0.930511948338 9:-0.126692839805 10:-0.994341201402 11:0.452665020562 12:2.42298179793 13:-0.188770086216 # nor, 1962
5 qid:1 1:0.366014302782 2:-0.610706866491 3:-0.00294286828428 4:0.72120559975 5:0.837829904315 6:0.99793282357 7:0.287682064787 8:-0.650022193751 9:-0.471643506786 10:-0.994341201402 11:0.288555013186 12:2.26733741602 13:0.329152747198 # nor, 1963
5 qid:1 1:0.366014302782 2:-0.610706866491 3:-0.00294286828428 4:0.72120559975 5:0.837829904315 6:0.987438880485 7:0.468249151631 8:-0.312861415028 9:-0.137814235024 10:-0.994341201402 11:0.286053335983 12:2.1627944691 13:0.982281917175 # nor, 1964
4 qid:1 1:0.366014302782 2:-0.610706866491 3:-0.00294286828428 4:0.72120559975 5:0.837829904315 6:0.357056677219 7:0.81041731891 8:-0.300468502615 9:-0.124630618966 10:-0.994341201402 11:0.362156129116 12:2.0681505245 13:1.12946053453 # nor, 1965
6 qid:1 1:0.366014302782 2:-0.610706866491 3:-0.00294286828428 4:0.72120559975 5:0.917027695143 6:0.374835915154 7:0.596347846798 8:-0.114732294417 9:-0.324901209602 10:-0.994341201402 11:0.43523394569 12:1.98840931283 13:0.329936844473 # nor, 1966
2 qid:1 1:0.366014302782 2:-0.610706866491 3:-0.00294286828428 4:0.72120559975 5:0.95749091447 6:1.06405118905 7:1.27249966533 8:0.46067142265 9:-0.579047441802 10:-0.994341201402 11:0.567682075098 12:1.92013410473 13:1.64704857105 # nor, 1967
5 qid:1 1:0.366014302782 2:-0.610706866491 3:-0.00294286828428 4:0.72120559975 5:0.463534785656 6:0.876288883869 7:-0.367926287784 8:0.146099703521 9:-0.212708151431 10:-0.994341201402 11:0.581794365729 12:1.82288325305 13:-0.484276120251 # nor, 1968
2 qid:1 1:0.366014302782 2:-0.610706866491 3:-0.00294286828428 4:0.72120559975 5:0.444038275751 6:0.296027057367 7:-0.439225770171 8:-0.255387967974 9:-0.270045563162 10:-0.994341201402 11:0.491981868028 12:1.68945927759 13:0.712925457111 # nor, 1969
6 qid:1 1:0.366014302782 2:-0.610706866491 3:-0.00294286828428 4:0.72120559975 5:0.885902604009 6:-0.995629337276 7:1.72698903497 8:0.296937200395 9:1.89256313925 10:-0.994341201402 11:0.185782429994 12:1.50498461625 13:-0.622160998949 # nor, 1970
5 qid:1 1:0.366014302782 2:-0.610706866491 3:-0.00294286828428 4:0.72120559975 5:1.17000166807 6:-0.634836354945 7:0.417287328718 8:-0.0744294577095 9:0.273532889503 10:-0.994341201402 11:0.0982304239885 12:0.413377427494 13:1.30652534184 # nor, 1971
4 qid:1 1:0.366014302782 2:-0.610706866491 3:-0.00294286828428 4:0.669502472882 5:0.681629904024 6:2.33811756195 7:-0.896247579785 8:-0.822778990087 9:0.0596658130774 10:-0.994341201402 11:0.318682966763 12:-0.0414805988115 13:1.12010610035 # nor, 1972
4 qid:1 1:0.366014302782 2:-0.610706866491 3:-0.00294286828428 4:-0.315646884506 5:0.850687776952 6:0.895106611448 7:1.87160752452 8:0.754830308986 9:0.856599727835 10:-0.994341201402 11:0.0920220606532 12:-0.117512571065 13:0.699165928345 # nor, 1973
5 qid:1 1:0.366014302782 2:-0.610706866491 3:-0.00294286828428 4:-0.30597757083 5:1.19200629993 6:-0.820530016655 7:0.00404875265169 8:2.64943617618 9:1.52022750429 10:-0.994341201402 11:-0.182739654817 12:-0.207078105415 13:0.34703921492 # nor, 1974
6 qid:1 1:0.366014302782 2:-0.610706866491 3:-0.00294286828428 4:0.833188000845 5:1.65213593324 6:-0.0923440655095 7:-0.0359449166736 8:1.4963097948 9:0.901066187497 10:-0.994341201402 11:-0.420377591328 12:-0.284350247004 13:0.990673401915 # nor, 1975
4 qid:1 1:0.366014302782 2:-0.610706866491 3:-0.00294286828428 4:0.842250060689 5:2.03520645049 6:2.00024253131 7:1.49018232617 8:2.11066459707 9:0.634213996957 10:-0.994341201402 11:-0.708050535206 12:-0.377251591199 13:1.39979199082 # nor, 1976
4 qid:1 1:0.366014302782 2:-0.610706866491 3:-0.00294286828428 4:1.4380830242 5:2.14609319004 6:-0.392783345102 7:-0.385898428831 8:1.4364269396 9:0.723629985863 10:-0.994341201402 11:-0.868948181801 12:-0.435167449822 13:0.518027896832 # nor, 1977
4 qid:1 1:0.366014302782 2:-0.610706866491 3:-0.00294286828428 4:-0.83231621929 5:0.739976189467 6:1.45038969195 7:-3.48543031891 8:-0.131815873099 9:0.242918002319 10:-0.994341201402 11:-1.01082430369 12:-0.484619228413 13:0.365913966528 # nor, 1978
5 qid:1 1:0.366014302782 2:-0.610706866491 3:-0.00294286828428 4:0.647844221261 5:0.447418539758 6:-0.431899509634 7:-0.596558277989 8:1.05715409932 9:0.109721931648 10:-0.994341201402 11:-1.15391629339 12:-0.53704491232 13:0.63459474917 # nor, 1979
2 qid:1 1:0.366014302782 2:-0.610706866491 3:-0.00294286828428 4:-0.329301808315 5:-0.102127382514 6:0.126565826438 7:-0.287205486994 8:1.92125569848 9:1.98171999791 10:-0.994341201402 11:-1.22104865708 12:-0.564837308682 13:0.712680217942 # nor, 1980
0 qid:1 1:0.366014302782 2:-0.610706866491 3:-0.00294286828428 4:-1.42865134179 5:-0.277638672155 6:-0.589481785429 7:-0.491835965824 8:1.63381820032 9:1.91843122061 10:-0.694790734494 11:-1.14171831164 12:-0.856706467031 13:-0.864209984645 # nor, 1981
4 qid:1 1:0.366014302782 2:-0.610706866491 3:-0.00294286828428 4:-1.59929866169 5:0.0405915808865 6:-0.987202881554 7:0.136188662055 8:1.26772166361 9:1.31108397686 10:-0.170577350451 11:-1.06119199803 12:-0.989792938839 13:-1.62288786611 # nor, 1982
6 qid:1 1:0.366014302782 2:-0.610706866491 3:-0.00294286828428 4:0.323496371738 5:-0.366906224908 6:0.726579691954 7:-1.26772779895 8:0.74039368163 9:0.423970534948 10:0.353636033592 11:-1.18691070593 12:-1.02602584682 13:0.372810483204 # nor, 1983
5 qid:1 1:0.366014302782 2:-0.610706866491 3:-0.00294286828428 4:0.339860972632 5:-0.512089536919 6:0.922181690897 7:0.241693650676 8:1.0423048965 9:0.229327291586 10:0.203860755502 11:-1.35650369558 12:-1.07479238414 13:1.45400791595 # nor, 1984
4 qid:1 1:0.366014302782 2:-0.610706866491 3:-0.00294286828428 4:2.55283790088 5:-0.286926912497 6:0.766678870189 7:0.777350494586 8:1.34024179625 9:-0.0293079041151 10:-0.245465078769 11:-1.29656069969 12:-1.05937131219 13:1.16592783008 # nor, 1985
2 qid:1 1:0.366014302782 2:-0.610706866491 3:-0.00294286828428 4:0.129553301604 5:1.30098617162 6:-0.460914363125 7:1.2745179964 8:-0.253348649805 9:-1.49156858061 10:-0.769678373539 11:-1.0979504013 12:-1.00301135873 13:0.463866285919 # nor, 1986
0 qid:1 1:0.366014302782 2:-0.610706866491 3:-0.00294286828428 4:-1.28387169252 5:1.12481822479 6:-0.740100930913 7:-1.85633506149 8:-1.51699260408 9:0.483410684596 10:-0.619903184722 11:-0.711398034711 12:-0.893038208333 13:-0.740212417011 # nor, 1987
1 qid:1 1:0.366014302782 2:-0.610706866491 3:-0.00294286828428 4:-2.72501653379 5:0.881174643927 6:0.52723635859 7:-1.17029156124 8:-1.59054855924 9:-0.100643994177 10:0.128973027183 11:-0.468856397982 12:-0.825513862145 13:-1.78178465978 # nor, 1988
2 qid:1 1:0.366014302782 2:-0.315573911494 3:-0.00294286828428 4:-2.68150176871 5:0.27290196879 6:1.67082401165 7:-0.38893461537 8:-0.109860099308 9:0.0945452591806 10:1.47695035145 11:-0.903152320835 12:-0.94980912779 13:-1.15749888266 # nor, 1989
3 qid:1 1:0.366014302782 2:-0.334912790201 3:-0.00294286828428 4:-1.83489664377 5:-0.142042080751 6:1.09601169538 7:-0.319924874208 8:0.26192820195 9:-0.363557403154 10:1.77650090763 11:-1.14146923189 12:-1.01949629419 13:-0.661908762842 # nor, 1990
4 qid:1 1:0.366014302782 2:-0.419750961917 3:-0.00294286828428 4:-0.696875123408 5:-0.365730432852 6:0.48359661747 7:-0.680075900411 8:-0.233803944092 9:-0.775387629261 10:1.8513884574 11:-0.682052650425 12:-0.64022758938 13:-0.0332987317014 # nor, 1991
3 qid:1 1:0.366014302782 2:-0.490821812175 3:-0.00294286828428 4:-0.506472161115 5:-0.196680789582 6:0.161667234731 7:-0.45995088079 8:-1.00180929124 9:-1.50315055427 10:2.22582656336 11:-0.332587002562 12:-0.418199538304 13:0.189479138231 # nor, 1992
5 qid:1 1:0.366014302782 2:-0.510626388772 3:-0.00294286828428 4:-0.613315975011 5:-0.146541047986 6:-0.241814026682 7:0.0799387613808 8:-0.891266672652 9:-0.748572719914 10:2.30071411313 11:-0.269935681832 12:-0.408706156671 13:-0.203360843132 # nor, 1993
4 qid:1 1:0.366014302782 2:-0.523323762842 3:-0.00294286828428 4:-0.30801624786 5:-0.098848735415 6:1.06513197527 7:0.252499290324 8:-0.703015891733 9:-1.37595162484 10:1.77650090763 11:-0.359634481171 12:-0.442647786019 13:1.00456228192 # nor, 1994
5 qid:1 1:0.366014302782 2:-0.158976611073 3:-0.00294286828428 4:0.0510313991949 5:-0.112818694749 6:0.21690663768 7:0.255889695352 8:-0.81035274204 9:-0.560043963002 10:1.47695035145 11:-0.534104768166 12:-0.603976442271 13:0.543180255557 # nor, 1995
5 qid:1 1:0.366014302782 2:0.0758855457526 3:-0.00294286828428 4:0.631362619003 5:-0.521901319151 6:1.4597543918 7:0.766410592518 8:-0.0755704142571 9:-0.274148266789 10:1.40206280168 11:-0.576605179527 12:-0.666017587791 13:1.030347344 # nor, 1996
3 qid:1 1:0.366014302782 2:0.347070961694 3:-0.00294286828428 4:-0.719440384024 5:-0.413570934179 6:0.899134461295 7:1.40230676386 8:0.411407232298 9:-0.620534657414 10:0.728074139545 11:-0.453940177171 12:-0.639037381533 13:1.18653511889 # nor, 1997
2 qid:1 1:0.366014302782 2:0.302966049077 3:0.171113150828 4:-0.221922721502 5:0.52477119317 6:-0.853919514808 7:0.762469974044 8:0.142868935333 9:-1.51672125888 10:0.203860755502 11:-0.269307354785 12:-0.859023838621 13:-0.25874475358 # nor, 1998
3 qid:1 1:0.366014302782 2:0.530804451934 3:0.345169169941 4:0.295419778236 5:-0.286537329403 6:-0.31623960121 7:-1.02272245253 8:-0.378349874448 9:0.337534659694 10:0.203860755502 11:0.0408383182514 12:0.0841227061076 13:-0.609123872838 # nor, 1999
2 qid:1 1:0.366014302782 2:0.596862302371 3:-0.292232279573 4:0.524852467658 5:-1.72171840435 6:-0.234887884665 7:-0.404901685655 8:0.784953301594 9:2.60653535689 10:0.353636033592 11:-0.0831330891354 12:0.410359472456 13:0.0457049218706 # nor, 2000
2 qid:1 1:0.366014302782 2:0.397083674509 3:-0.929633729087 4:-0.603419682418 5:-1.69722669481 6:0.0542399109514 7:-0.452647105283 8:0.431255390544 9:-0.888636851603 10:0.353636033592 11:-0.579502813819 12:-0.412441980017 13:-0.628156807386 # nor, 2001
1 qid:1 1:0.366014302782 2:0.19598445035 3:0.94009505513 4:0.0691520237094 5:-1.17379873651 6:-1.08743592147 7:-0.581483751896 8:-1.03499942033 9:-1.768885327 10:0.728074139545 11:-0.464107681934 12:-0.437420663096 13:-0.888457719068 # nor, 2002
4 qid:1 1:0.366014302782 2:0.416548645263 3:2.25455967984 4:0.139168421624 5:-1.1076718803 6:-1.0480529138 7:-0.540385702641 8:-1.32971912365 9:-0.595506952428 10:1.1025122455 11:-0.300123171196 12:-0.658984170055 13:-1.16641255241 # nor, 2003
3 qid:1 1:0.366014302782 2:1.2368732422 3:-1.45756345603 4:1.21931501002 5:-1.1764487378 6:-0.765598364179 7:0.804616643386 8:-0.695871947398 9:0.156174452931 10:1.1025122455 11:-0.284856115951 12:-0.893724698539 13:0.423013420786 # nor, 2004
2 qid:1 1:0.366014302782 2:1.70499982571 3:-3.19571178546 4:0.592147703254 5:-1.5947671511 6:-0.908051687434 7:0.615926696512 8:-0.249246743234 9:0.920725681263 10:1.25228734504 11:0.0280419654495 12:-0.586843982175 13:-0.308776094445 # nor, 2005
3 qid:1 1:0.374700612079 2:3.23570749713 3:-3.91632246351 4:0.783935265006 5:-1.73647422332 6:-1.21938019017 7:0.816714942137 8:0.16092701112 9:0.892635317949 10:0.353636033592 11:0.459576749435 12:-0.230128561175 13:-0.463525885715 # nor, 2006
0 qid:1 1:-3.07569499542 2:3.8894458303 3:-0.828603522458 4:0.943760762416 5:-1.21569620397 6:-0.683508139593 7:0.980023274142 8:0.427382983811 9:-0.56321925069 10:-0.320352628541 11:1.25566050873 12:-0.0738947545398 13:-0.274594175742 # nor, 2007
-2 qid:1 1:0.0314968206835 2:2.37252037963 3:-1.12633444969 4:-0.701642276471 5:-1.74342541419 6:-0.987313740614 7:-0.0858615253909 8:0.863400598514 9:1.41715230012 10:-0.245465078769 11:1.99015438181 12:0.0669547326699 13:-1.65348827733 # nor, 2008
0 qid:1 1:-3.72556137923 2:1.75712505292 3:3.56339662725 4:-2.10025544068 5:-1.0173952917 6:-2.06926433983 7:-2.91160697167 8:-1.32189805305 9:-2.67711015629 10:0.203860755502 11:2.04150778755 12:0.0764748697893 13:-2.56152315399 # nor, 2009
1 qid:1 1:-3.71045816487 2:1.21683656163 3:1.48597975249 4:0.326859651946 5:-0.961007431944 6:-0.916133553338 7:0.810283755292 8:-0.996065133289 9:0.255685561012 10:0.503411133136 11:1.98783968297 12:0.0573344953026 13:-1.43455716504 # nor, 2010
3 qid:1 1:-2.25885200308 2:0.860168338846 3:0.716863855867 4:-0.205014266705 5:-1.21115141561 6:-1.18823202815 7:-0.090458800452 8:-0.685183386589 9:0.355316826008 10:0.278748305274 11:2.16668538785 12:0.102079933008 13:-0.974239653572 # nor, 2011
1 qid:1 1:-1.36875817178 2:0.238965230308 3:0.792703506997 4:-0.176724215267 5:-1.16522401778 6:-0.758786141425 7:-0.359826331524 8:-1.139792297 9:-0.627387490961 10:0.203860755502 11:2.22309740945 12:0.113178443064 13:-0.144850164433 # nor, 2012
