0 qid:1 1:-0.332365296571 2:-0.855833363679 3:-0.458622166235 4:-0.556240399582 5:0.917183728009 6:0.648772058814 7:-0.400034992056 8:-1.33544644485 9:1.00887614563 10:-0.67467299519 11:1.66792532095 12:1.37617527979 13:-0.833097095221 # nzl, 1961
0 qid:1 1:-0.332365296571 2:-0.855833363679 3:-0.458622166235 4:-0.556240399582 5:0.917183728009 6:-0.212227249329 7:-1.03183788635 8:-1.33544644485 9:1.00887614563 10:-0.67467299519 11:2.60993674181 12:2.07490510709 13:-0.833097095221 # nzl, 1962
0 qid:1 1:-0.332365296571 2:-0.855833363679 3:-0.458622166235 4:-0.556240399582 5:0.917183728009 6:0.399641508808 7:1.37766834798 8:-1.33544644485 9:1.00887614563 10:-0.67467299519 11:1.64560548628 12:1.44913470485 13:-0.833097095221 # nzl, 1963
0 qid:1 1:-0.332365296571 2:-0.855833363679 3:-0.458622166235 4:-0.556240399582 5:0.917183728009 6:-1.33024086975 7:-0.273873749813 8:-1.33544644485 9:1.00887614563 10:-0.67467299519 11:1.83375675555 12:1.54665137284 13:-0.833097095221 # nzl, 1964
0 qid:1 1:-0.332365296571 2:-0.855833363679 3:-0.458622166235 4:-0.556240399582 5:0.917183728009 6:-0.503336471983 7:1.56795499365 8:-1.33544644485 9:1.00887614563 10:-0.67467299519 11:1.06048212818 12:1.03857660728 13:-0.833097095221 # nzl, 1965
0 qid:1 1:-0.332365296571 2:-0.855833363679 3:-0.458622166235 4:-0.556240399582 5:0.917183728009 6:1.07205228626 7:0.139656975728 8:-1.33544644485 9:1.00887614563 10:-0.67467299519 11:1.30618084738 12:1.12648147502 13:-0.833097095221 # nzl, 1966
0 qid:1 1:-0.332365296571 2:-0.855833363679 3:-0.458622166235 4:-0.556240399582 5:0.917183728009 6:-1.33168691507 7:-2.79047138627 8:-1.33544644485 9:1.00887614563 10:-0.67467299519 11:1.29608666022 12:0.980630260175 13:-0.833097095221 # nzl, 1967
0 qid:1 1:-0.332365296571 2:-0.855833363679 3:-0.458622166235 4:-0.556240399582 5:0.917183728009 6:2.41131244284 7:-0.590139360855 8:-1.33544644485 9:1.00887614563 10:-0.67467299519 11:-0.280204694647 12:-0.0172816008473 13:-0.833097095221 # nzl, 1968
0 qid:1 1:-0.332365296571 2:-0.855833363679 3:-0.458622166235 4:-0.556240399582 5:0.917183728009 6:2.34140280448 7:0.72470615109 8:-1.33544644485 9:1.00887614563 10:-0.67467299519 11:-0.249616674932 12:-0.0105971136824 13:-0.833097095221 # nzl, 1969
4 qid:1 1:-0.332365296571 2:-0.855833363679 3:-0.458622166235 4:-0.556240399582 5:0.917183728009 6:0.251789528212 7:1.90098026557 8:-1.33544644485 9:1.00887614563 10:-0.67467299519 11:0.553755465088 12:0.479944336863 13:-0.833097095221 # nzl, 1970
5 qid:1 1:-0.332365296571 2:-0.855833363679 3:-0.458622166235 4:-0.556240399582 5:-0.357194268611 6:0.809433034997 7:-0.806749912463 8:-1.82617905683 9:1.00887614563 10:-0.67467299519 11:0.790110265082 12:0.590461212806 13:0.774162424416 # nzl, 1971
8 qid:1 1:-0.332365296571 2:-0.855833363679 3:-0.458622166235 4:1.95559000005 5:-1.11237402465 6:-0.551749806026 7:0.540247639123 8:-1.54911296222 9:0.231619179019 10:-0.67467299519 11:1.26679596862 12:0.810752453147 13:1.34041387702 # nzl, 1972
6 qid:1 1:-0.332365296571 2:-0.855833363679 3:-0.458622166235 4:2.33320309704 5:-0.132900738504 6:-1.59588176376 7:1.97238179818 8:-1.21620234824 9:0.0941299565712 10:-0.67467299519 11:1.59489609136 12:1.00640663775 13:2.47880631142 # nzl, 1973
-2 qid:1 1:-0.332365296571 2:-0.855833363679 3:-0.458622166235 4:0.345461126644 5:4.05502746751 6:-1.79592941816 7:1.01107435414 8:-0.275531870709 9:-0.703462180379 10:-0.67467299519 11:1.81694708968 12:1.13981598344 13:1.71164463408 # nzl, 1974
1 qid:1 1:-0.332365296571 2:-0.855833363679 3:-0.458622166235 4:-0.570122202186 5:2.25072284704 6:2.23071765493 7:-3.15719992145 8:-0.333260882621 9:1.11822247035 10:-0.67467299519 11:1.57417618426 12:0.979639704468 13:-1.56834859997 # nzl, 1975
-4 qid:1 1:-0.332365296571 2:-0.855833363679 3:-0.458622166235 4:-2.20489577456 5:0.787005922689 6:1.79499025323 7:-0.755531308451 8:0.128874728822 9:2.27216764871 10:-0.67467299519 11:-0.26697120031 12:-0.25285332691 13:-0.438734704973 # nzl, 1976
0 qid:1 1:-0.332365296571 2:-0.855833363679 3:-0.458622166235 4:-2.72466340824 5:0.458984105023 6:-1.10166196852 7:-0.432522892146 8:-0.19243890401 9:1.43091480063 10:-0.67467299519 11:-1.26237249107 12:-1.0780498084 13:-2.50441826678 # nzl, 1977
2 qid:1 1:-0.332365296571 2:-0.855833363679 3:-0.458622166235 4:0.344501858188 5:-0.332258725236 6:-0.463185096308 7:-0.380575552464 8:-0.41781356734 9:0.866400152138 10:-0.67467299519 11:-1.74723368086 12:-1.38038827089 13:-0.703305578523 # nzl, 1978
1 qid:1 1:-0.332365296571 2:-0.855833363679 3:-0.458622166235 4:0.213437531965 5:0.441808521118 6:0.0562291815045 7:0.921962355852 8:0.624342371524 9:1.04966622708 10:-0.67467299519 11:-2.4826994468 12:-1.84352843153 13:0.105186233533 # nzl, 1979
5 qid:1 1:-0.332365296571 2:-0.855833363679 3:-0.458622166235 4:-0.491325157596 5:0.285395272114 6:-0.264405435692 7:-1.39989472734 8:0.606995379485 9:1.18049524135 10:-0.67467299519 11:-1.58524236645 12:-1.28065146743 13:-0.295531398261 # nzl, 1980
1 qid:1 1:-0.332365296571 2:-0.855833363679 3:-0.458622166235 4:0.748862952256 5:0.944480886025 6:-0.48960871137 7:0.73583387611 8:0.647431748075 9:1.40455070036 10:-0.67467299519 11:-1.13497684139 12:-1.02105497974 13:1.13699649685 # nzl, 1981
3 qid:1 1:-0.332365296571 2:-0.855833363679 3:-0.458622166235 4:-1.32939375724 5:0.926778972903 6:-0.683729062863 7:-0.402054440515 8:0.593028783824 9:0.675934706815 10:-0.67467299519 11:-0.0782978453386 12:-0.414321260534 13:-0.43925978757 # nzl, 1982
5 qid:1 1:-0.332365296571 2:-0.855833363679 3:-0.458622166235 4:-0.470531220586 5:0.320382493262 6:0.495062059711 7:-0.670492046155 8:0.513847418191 9:0.00199310853867 10:-0.67467299519 11:0.557057981045 12:-0.0179810193652 13:0.633788506375 # nzl, 1983
2 qid:1 1:-0.332365296571 2:-0.855833363679 3:-0.458622166235 4:0.534496260997 5:0.790855700277 6:1.35007273682 7:0.802686185227 8:1.86546103593 9:0.0142505094959 10:-0.67467299519 11:-0.301000544246 12:-0.553783333467 13:1.19830535617 # nzl, 1984
3 qid:1 1:-0.332365296571 2:-0.855833363679 3:-0.458622166235 4:0.610392578551 5:0.645084780059 6:-0.657542838961 7:-0.393578560821 8:0.960934658497 9:0.970507876452 10:-0.67467299519 11:-0.73036566984 12:-0.823896948291 13:-0.147738128426 # nzl, 1985
-1 qid:1 1:-0.332365296571 2:-0.855833363679 3:-0.458622166235 4:0.858964244403 5:-0.262624032753 6:0.106158164809 7:-0.333190608196 8:-0.374851528354 9:1.53740571619 10:-0.67467299519 11:-1.84563101968 12:-1.43507569618 13:0.307942889564 # nzl, 1986
2 qid:1 1:-0.332365296571 2:-0.855833363679 3:-0.458622166235 4:-1.41247271094 5:-0.847341764083 6:0.812215655588 7:0.459680474002 8:-0.8314087297 9:0.98768082629 10:-0.67467299519 11:-0.306747221139 12:-0.293369389473 13:-1.28402660001 # nzl, 1987
1 qid:1 1:-0.332365296571 2:-0.855833363679 3:-0.458622166235 4:0.338579782107 5:-1.42577634034 6:-0.536497589918 7:-0.553142232108 8:-1.16003767546 9:-0.252226650933 10:0.171279163696 11:-1.32639037901 12:-0.935129835126 13:0.00424184808936 # nzl, 1988
0 qid:1 1:-0.332365296571 2:-0.179147996081 3:-0.458622166235 4:-0.828105477457 5:-0.335521118985 6:-1.60135969024 7:1.30994951193 8:-0.563080192105 9:-0.442123562939 10:1.01723132258 11:-0.969542710617 12:-0.719115975723 13:-0.620114057856 # nzl, 1989
-2 qid:1 1:-0.332365296571 2:-0.581007082576 3:-0.458622166235 4:-0.735307531407 5:-0.400965317335 6:0.720482179097 7:-0.493271912158 8:-0.406541772662 9:-1.01003403174 10:1.41200915808 11:-0.200256807966 12:-0.241001109183 13:-0.73992435965 # nzl, 1990
1 qid:1 1:-0.332365296571 2:-0.191530422064 3:-0.458622166235 4:-1.81436393887 5:-1.33700979137 6:1.45668374928 7:-1.00379509452 8:-0.0652984443288 9:-1.07295004462 10:2.99111996224 11:-0.200256807966 12:3.96183146214 13:-1.51555359492 # nzl, 1991
6 qid:1 1:-0.332365296571 2:-0.0608598098308 3:-0.458622166235 4:-0.935585409739 5:-1.15554281801 6:-0.198216607722 7:0.280946421993 8:0.70171842272 9:-0.967943891743 10:2.99111996224 11:-0.200256807966 12:-0.286092206993 13:-0.389026506796 # nzl, 1992
5 qid:1 1:-0.332365296571 2:1.0083525805 3:-0.458622166235 4:0.985485831209 5:-1.32736354118 6:0.716743859999 7:0.327082981559 8:0.432620584695 9:-1.06875528825 10:2.53994536993 11:-0.200256807966 12:-0.180517436347 13:1.88313168501 # nzl, 1993
4 qid:1 1:-0.332365296571 2:0.768813331198 3:-0.458622166235 4:1.66769345341 5:-1.01797918915 6:1.16056528143 7:1.13806948177 8:0.649889029615 9:-1.04082429485 10:1.75038969893 11:-0.200256807966 12:0.0246968156537 13:1.46189656826 # nzl, 1994
3 qid:1 1:-0.332365296571 2:0.792009112699 3:-0.458622166235 4:0.786332319287 5:-0.723865273154 6:-0.330582639991 7:0.234149555651 8:0.294655461426 9:-0.938205044813 10:0.678850512811 11:-0.200256807966 12:0.170077577963 13:1.03822177922 # nzl, 1995
3 qid:1 1:-0.332365296571 2:0.717853972206 3:-0.458622166235 4:1.23056810839 5:-0.625875473119 6:0.0532378589297 7:0.160621187426 8:0.00386162033649 9:-1.05663366162 10:0.566056999195 11:-0.200256807966 12:0.284524311537 13:0.643369258134 # nzl, 1996
1 qid:1 1:-0.332365296571 2:1.2868801739 3:-0.458622166235 4:0.121385996167 5:-0.563100741547 6:-0.112722505032 7:-0.225297288469 8:0.033255341043 9:-1.24568399176 10:0.848041052157 11:-0.200256807966 12:-0.0398378743078 13:0.550550830828 # nzl, 1997
5 qid:1 1:-0.332365296571 2:1.60118828752 3:-1.10066518695 4:0.317134150597 5:-0.544877261663 6:-0.285908964894 7:-0.438412858356 8:0.484439667479 9:-1.2055463867 10:1.35561213235 11:-0.200256807966 12:-0.501754673448 13:-0.316569948326 # nzl, 1998
2 qid:1 1:-0.332365296571 2:1.72407726657 3:-1.74270820767 4:0.284111350185 5:-0.260598287613 6:0.940117726736 7:0.758096585333 8:1.06126295825 9:-1.18252326423 10:0.960834565773 11:-0.200256807966 12:-0.894921128296 13:1.42103867312 # nzl, 1999
4 qid:1 1:-0.332365296571 2:1.93773364433 3:-0.781759996936 4:-0.156672881594 5:-1.07996160865 6:0.587273546562 7:-0.633092125077 8:2.26772052236 9:-0.750944115189 10:0.509659973466 11:-0.200256807966 12:-0.827517198336 13:0.140725277474 # nzl, 2000
5 qid:1 1:-0.332365296571 2:1.18376257505 3:0.179188213797 4:0.186307094797 5:-1.31483859039 6:-0.229863151863 7:-0.0788795986402 8:2.03506740805 9:-0.671734609905 10:0.0584856500793 11:-0.200256807966 12:-0.796594159559 13:0.703311593337 # nzl, 2001
4 qid:1 1:-0.332365296571 2:0.495949809321 3:0.506697460288 4:1.33033290855 5:-1.11541803162 6:0.818245458502 7:0.298707272005 8:1.26072470862 9:-1.27402331075 10:0.00208889327111 11:-0.200256807966 12:0.512575184882 13:1.29996857046 # nzl, 2002
4 qid:1 1:-0.332365296571 2:0.598075976686 3:0.834206706779 4:1.40432488424 5:-0.689596012426 6:-0.556030885728 7:0.988117370866 8:0.474881478664 9:-0.85111628927 10:-0.279895159691 11:-0.200256807966 12:0.723641303284 13:0.902160854144 # nzl, 2003
3 qid:1 1:-0.332365296571 2:1.05300305737 3:0.622852222709 4:1.35274157234 5:-0.190318255462 6:-0.0693430716628 7:1.01956375485 8:0.61827791736 9:-0.744778454217 10:-0.731069751998 11:-0.200256807966 12:0.100566809738 13:0.673603246537 # nzl, 2004
2 qid:1 1:-0.332365296571 2:1.10763042712 3:0.411497738638 4:1.18515548756 5:0.3955321581 6:-1.16772764353 7:0.00712131472002 8:0.48243689313 9:-0.932879817739 10:-0.843863400075 11:-0.200256807966 12:-0.287834196944 13:0.538134057045 # nzl, 2005
4 qid:1 1:-0.412201038057 2:1.50869195111 3:0.724366211611 4:0.0383257749241 5:0.0388717338 6:-0.108273860373 7:-0.772680973418 8:0.783543932866 9:-0.762965541973 10:-0.787466508806 11:-0.200256807966 12:-0.189838473855 13:-0.0379403422242 # nzl, 2006
-2 qid:1 1:-0.197529095632 2:1.21345773932 3:1.03723468458 4:0.599144304808 5:-0.137317745525 6:-0.128464254864 7:0.721830566121 8:0.603636970829 9:-0.53041426312 10:-0.900260156883 11:-0.200256807966 12:-0.385534862655 13:0.671275608962 # nzl, 2007
2 qid:1 1:-0.965833600103 2:2.47307695731 3:1.78627331083 4:-1.60034222354 5:-0.0142941533767 6:-1.77142940335 7:-1.0298358274 8:1.6651116895 9:-0.842337171256 10:-0.618276238382 11:-0.200256807966 12:-0.475988255198 13:-1.62620637107 # nzl, 2008
1 qid:1 1:3.44864888072 2:1.08123419036 3:2.53531193707 4:0.0293354184386 5:-0.893398431048 6:-0.057460427682 7:-1.65923787924 8:0.114520187636 9:-1.23448066599 10:0.453263216658 11:-0.200256807966 12:-0.337238944898 13:0.103400887838 # nzl, 2009
2 qid:1 1:3.56351977307 2:0.677989724624 3:2.45530808936 4:0.0792378261144 5:-0.880304537338 6:-0.342208349619 7:0.800701533039 8:0.645035889621 9:-0.653664091768 10:0.678850512811 11:-0.200256807966 12:-0.224352994968 13:-0.555212324667 # nzl, 2010
3 qid:1 1:3.07200833419 2:0.760399247529 3:2.37530424165 4:0.4115575836 5:-0.680927816752 6:-0.362445081548 7:0.206363813548 8:0.889672520399 9:-1.00062684313 10:0.678850512811 11:-0.200256807966 12:-0.598023157142 13:0.155652290683 # nzl, 2011
2 qid:1 1:2.1492750305 2:0.995233156282 3:2.37530424165 4:0.0765950152513 5:-0.349693826852 6:-0.429581593264 7:-0.436002787815 8:0.488279888721 9:-1.37684028945 10:0.904437808965 11:-0.200256807966 12:-0.842193541367 13:0.241068322013 # nzl, 2012
