0.0
0.0
0.0
0.0
0.0
0.0
0.0
0.0
0.0
3.78545822943
5.11910795743
7.80027858138
5.9934400159
-1.73168292073
0.928812265411
-3.93633785061
0.30568825942
2.20986860241
1.26608831153
4.64001420413
0.927575577614
3.45484603099
4.78441037864
1.61417475477
2.68740620151
-1.0620405628
1.97212183536
0.5016230308
0.219442780903
-1.60733879093
1.04588626968
6.39733065104
5.40522706119
4.40737749356
3.4774108596
3.25880255447
1.21653778686
5.30899751426
2.29357105662
3.61858856196
5.02385014954
4.08692336511
3.54861871297
3.22955825514
1.87277327497
3.54313660215
-1.86795100505
2.20566371112
0.654481232603
2.32872753527
2.52990153037
2.49672162283
0.0
