7.12176269703;0.0377461812646;-0.742334555465;-0.654345202699;0.360426321119;1.37381884777;0.0892389482111;-0.0355843666542;-0.602550413595;-0.614942889083;0.211853820437;0.928023964475;0.928023964475;0.143935410079;
9.98491088345;0.0377461812646;-0.742334555465;-0.654345202699;0.360426321119;1.09536710123;0.0892389482111;-0.0355843666542;-0.852354638735;-0.458966685396;0.211853820437;0.449049685295;0.449049685295;-0.0905898852993;
-3.68047532596;0.0377461812646;-0.742334555465;-0.654345202699;0.360426321119;1.37509981128;0.0892389482111;-0.0355843666542;-0.65191218915;-0.428997908971;0.211853820437;0.24803028619;0.24803028619;0.570406078004;
7.59724126114;0.0377461812646;-0.742334555465;-0.654345202699;0.360426321119;1.12619467187;0.0892389482111;-0.0355843666542;-1.47130252897;-0.37554498971;0.211853820437;0.277548245627;0.277548245627;-2.58443067276;
10.8719020603;0.0377461812646;-0.742334555465;-0.654345202699;0.360426321119;1.13998211166;0.0892389482111;-0.0355843666542;-1.42216120651;-0.334240924924;0.211853820437;0.16695641384;0.16695641384;0.0191806857808;
12.2835366675;0.0377461812646;-0.742334555465;-0.654345202699;0.360426321119;0.882183491143;0.0892389482111;-0.0355843666542;-1.49583108029;-0.289027885425;0.211853820437;0.213666535461;0.213666535461;0.775179826766;
13.6181201829;0.0377461812646;-0.742334555465;-0.654345202699;0.360426321119;0.890674039631;0.0892389482111;-0.0355843666542;-1.84517935121;-0.548821467096;0.211853820437;-0.0172259470555;-0.0172259470555;1.101074512;
13.7246761289;0.0377461812646;-0.742334555465;-0.654345202699;0.360426321119;0.765435647739;0.0892389482111;-0.0355843666542;-1.43660900586;-0.319296643672;0.211853820437;-0.420041767027;-0.420041767027;1.40918092458;
13.8856403878;0.0377461812646;-0.742334555465;-0.654345202699;0.360426321119;1.03134284191;0.0892389482111;-0.0355843666542;-1.10550323157;-0.0273883910485;0.211853820437;-0.603079627226;-0.603079627226;1.43378078654;
12.0812370283;0.0377461812646;-0.742334555465;-0.654345202699;0.360426321119;1.67234547123;0.0892389482111;-0.0355843666542;-1.15691197564;-0.251896744195;0.211853820437;-0.561453098718;-0.561453098718;1.47094153355;
13.5265887828;0.0377461812646;-0.742334555465;-0.654345202699;0.360426321119;1.76378978715;0.0892389482111;-0.0355843666542;-1.38737811895;0.776549564626;0.211853820437;-0.328855432354;-0.328855432354;1.0543709409;
11.1279537477;0.0377461812646;-0.742334555465;-0.654345202699;0.360426321119;1.44232990917;0.0892389482111;-0.0355843666542;-1.97967151601;0.880713846663;0.211853820437;-0.313809791521;-0.313809791521;1.38804967951;
6.46788726441;0.0377461812646;-0.742334555465;-0.654345202699;0.360426321119;1.00524271551;0.0892389482111;-0.0355843666542;-1.65257219527;2.93456092539;0.211853820437;-0.300091439019;-0.300091439019;0.83429277544;
4.60900508142;0.0377461812646;-0.742334555465;-0.654345202699;0.360426321119;1.40556756692;0.0892389482111;-0.0355843666542;-0.314356525154;3.86697616915;0.211853820437;-0.470281225365;-0.470281225365;-0.241545753918;
7.43671923245;0.0377461812646;-0.742334555465;-0.654345202699;0.360426321119;1.02306075871;0.0892389482111;-0.0355843666542;-0.914696960777;-0.0288798201798;0.211853820437;-0.639903741759;-0.639903741759;-0.67069350989;
7.48615191946;0.0377461812646;-0.742334555465;-0.654345202699;0.360426321119;0.862994027359;0.0892389482111;-0.0355843666542;-0.477248511768;-0.216463559154;0.211853820437;-0.733542710037;-0.733542710037;-0.0178779664693;
8.70318587032;0.0377461812646;-0.742334555465;-0.654345202699;1.2954271868;0.496214366372;0.498889227995;-0.0140285960153;-0.064090492638;-0.307408664381;0.211853820437;-0.701926550564;-0.701926550564;-0.00646577106709;
9.41955697246;0.0377461812646;-0.742334555465;-0.654345202699;0.0666394984855;0.647657137541;0.136213176901;0.482201776127;0.0852070069188;0.197425066771;0.211853820437;-0.848377808562;-0.848377808562;0.274502756002;
10.0267749049;0.0377461812646;-0.742334555465;-0.654345202699;-0.741360582729;0.777084594594;1.96864607593;1.79107646939;0.876877790992;0.831948579379;0.211853820437;-0.804538205608;-0.804538205608;0.439886583842;
10.6838426313;0.0377461812646;-0.742334555465;-0.654345202699;-0.37370944987;0.862114961401;1.74667176926;1.65605256261;1.58030173464;2.51760445422;0.211853820437;-0.800396803449;-0.800396803449;0.580070945976;
7.17245362015;0.0377461812646;-0.742334555465;-0.654345202699;1.98611280724;0.626743952065;0.22922959711;0.0306030735032;1.3618148925;1.01716454596;0.0756621637697;2.14555763238;2.14555763238;0.731763798197;
8.54048353543;0.0377461812646;-0.742334555465;-0.654345202699;-0.860272882938;0.520795583786;-0.789215752377;-0.501842681483;0.829102471786;0.57185956572;-0.332913455645;1.79868666175;1.79868666175;-0.0788872093016;
8.80055318168;0.0377461812646;-0.742334555465;-0.654345202699;-0.101796855529;0.358807362707;-0.747049019455;-0.674570981629;0.0587865497827;0.201654097987;0.484237458478;-0.774151741104;-0.774151741104;0.236940750972;
-0.687041062763;0.0377461812646;-0.742334555465;-0.654345202699;0.848119113803;0.411067659928;-0.337509962462;-0.223659493188;-0.332263519911;-0.490901134541;-0.196721474271;-0.284032415663;-0.284032415663;0.296981299052;
1.32763401867;0.0377461812646;-0.742334555465;-0.654345202699;-0.763535707108;0.377861618964;-2.06245408777;-1.94304043751;-0.50653303196;-1.12121783411;2.11853896202;-1.73921535289;-1.73921535289;-1.89335643016;
10.7568811425;0.0377461812646;-0.742334555465;-0.654345202699;-0.604981572652;0.221191795589;0.366670318051;0.178287637809;-0.689200115173;-1.06605317866;5.3871419691;-1.93395366506;-1.93395366506;-1.42824180476;
11.11518875;0.0377461812646;-0.742334555465;-0.654345202699;1.80612338609;0.198852133138;0.545316930341;0.521534812285;-0.0966162421255;-0.548853828514;2.93568955144;-0.604151124106;-0.604151124106;0.748625713105;
10.1831785244;0.0377461812646;-0.742334555465;-0.654345202699;2.67132445988;-0.243627671001;2.915346466;2.42582096368;0.588143410197;0.883693959872;1.02900440985;0.256018234157;0.256018234157;0.831345805381;
10.0442104811;0.0377461812646;-0.140966349097;-0.654345202699;1.05646704785;-0.34145889956;-0.103658226436;-0.0103760101025;0.347291881548;0.47958111689;-0.60529676898;0.587899210765;0.587899210765;0.616178808502;
6.68707621784;0.0377461812646;0.0494616980988;-0.654345202699;0.243779894929;-0.275576457871;0.376110420259;0.684761127528;0.273075380448;0.62835285096;-0.60529676898;1.38003757422;1.38003757422;0.584096181377;
7.08760094519;0.0377461812646;-0.229069187878;-0.654345202699;0.0487259131269;-0.486757106876;-0.274423624891;-0.351942733236;-0.126864865929;0.565808796256;-0.60529676898;0.513921389778;0.513921389778;-0.190943059267;
11.5373874387;0.0377461812646;-0.514843007977;-0.654345202699;0.289775587411;-0.41515562595;-0.480391801822;-0.292516690676;-0.374951251665;-0.42347361656;-0.60529676898;0.644296772042;0.644296772042;-0.0984765815504;
10.9254561109;0.0377461812646;1.89780283677;-0.654345202699;0.771926035274;-0.26401433232;1.00392929108;1.2705152553;-0.334867326045;0.269056213309;-0.60529676898;0.25062993572;0.25062993572;0.928816006289;
7.02804584994;0.0377461812646;1.34332649482;-0.654345202699;2.07116023766;-0.684391926346;1.24219711109;0.970441264658;-0.283183559792;0.347097083068;-0.60529676898;0.75289948405;0.75289948405;0.787543493943;
7.5319339106;0.0377461812646;0.422231219038;-0.654345202699;-2.21733301956;-0.721112139989;1.77023599068;1.84238687221;0.302151068255;0.236570103076;-0.60529676898;0.673642409846;0.673642409846;-0.112225669964;
8.29111770788;0.0377461812646;-0.126183219478;-0.654345202699;-0.315558966448;-0.688439718462;-0.123192269248;0.104851525458;0.11008792892;-0.286653510129;-0.60529676898;1.52672137805;1.52672137805;0.00410361247842;
-2.22522974267;0.0377461812646;0.311432867779;-0.410002933485;-0.958319742583;-0.568357939909;-0.0123467200555;0.254158654447;-0.0962412799118;-0.412127383148;-0.60529676898;0.937805573706;0.937805573706;0.179371322264;
6.09520449341;0.0377461812646;0.2070670974;0.45032914158;-1.86927722383;-1.02978025833;-2.22281465109;-2.59255800354;-0.321533804055;-1.1007585791;-0.60529676898;0.972194042065;0.972194042065;-2.24846781176;
8.89754441765;0.0377461812646;1.42615821849;0.701490388228;-0.32046127238;-0.729788377425;-0.388918310755;-0.1027645009;0.141621109211;-1.83219528879;-0.60529676898;-1.19016623869;-1.19016623869;-0.327584544505;
-0.952290065929;0.0377461812646;1.02028714852;0.713960891706;1.04834117628;-0.42574765387;0.602460299373;1.48737310515;0.700069871114;0.366011986109;-0.60529676898;-0.413036655053;-0.413036655053;0.31937302008;
4.21168655204;0.0377461812646;0.471593522637;1.26107106558;-0.729535641657;-0.688312932846;-2.09522780976;-2.31387759354;0.439282431485;-1.35559785446;-0.60529676898;0.388844677392;0.388844677392;-1.9545927019;
4.43532814708;0.0377461812646;0.248618323412;1.36855619237;-1.03489911638;-0.784876907834;-0.438673645716;-0.519476185304;0.469209801484;-1.06950639487;-0.60529676898;-1.09429574932;-1.09429574932;-0.762419794025;
9.54917547646;0.0377461812646;0.910832326209;1.23772203779;-0.0178820760482;-1.44705817467;0.569644276685;0.0440732850385;1.02739403549;-1.20157458979;-0.60529676898;-3.08318800655;-3.08318800655;-0.710789147643;
7.48915745882;0.0377461812646;0.476519689505;1.46049298929;-1.15990645356;-1.36985033924;1.29842551703;1.77781236408;1.48744772844;0.512990034392;-0.60529676898;-0.812009540869;-0.812009540869;0.469810745056;
8.86019611423;0.0377461812646;0.988391000789;1.62637721853;-0.272718983528;-1.60097217245;0.30940831225;0.258720106292;1.80141828648;-0.0694351290628;-0.60529676898;0.100801354899;0.100801354898;-0.00577190220268;
9.11152714756;2.05221377331;1.67720662983;1.54664559523;-0.538071818287;-1.60238063726;0.120968174467;0.223033495534;1.95855939854;-0.215113617843;-0.60529676898;0.748727608448;0.748727608448;0.310750665878;
1.78762022808;2.86227639485;3.66688868579;2.07703998785;-0.623725070812;-1.66787578739;-0.274401666894;-0.315443413563;1.33799776466;0.976657570377;-0.60529676898;1.61062856605;1.61062856605;0.368773788563;
-0.603388298368;-3.64802335434;2.03985253197;2.81624898125;0.107451539884;-1.00138791826;-0.876884127491;0.0499754264424;2.14059978099;-1.13940168776;-0.60529676898;2.57271306571;2.57271306571;-1.32204785048;
15.2403770359;-2.19459288627;1.81974447516;1.64022743729;-3.05255049415;-1.1788599404;-2.6890978603;-2.84991396439;0.585741698414;0.303219173175;-0.60529676898;0.654807083239;0.654807083239;-1.87404407328;
6.05687224668;3.15535321013;1.55577118141;1.25244784509;-0.77028144402;-1.37246703234;1.04907443788;0.929019169113;0.81808449797;-0.723355507324;-0.60529676898;-0.38165750247;-0.38165750247;1.78370056571;
2.50372858095;1.70156814359;0.956048040385;1.7180221526;-0.790394603397;-1.37171062713;-0.879298693079;-0.922557503954;0.854596765344;-0.472204502812;-0.60529676898;-0.119491049505;-0.119491049505;-0.336434055148;
3.85106407264;-1.87579114606;0.102398443144;1.36526610209;-1.21844905652;-1.10524630889;-1.34136364561;-0.926104074448;0.732397733972;-0.286619086982;-0.60529676898;0.185602557844;0.185602557844;-1.15672468182;
0.0;-1.87579114606;0.102398443144;1.36526610209;-0.371586494321;-1.14430653986;-1.02016934428;-0.929338108363;0.542661959553;-0.674288202825;-0.60529676898;-0.506418576724;-0.506418576724;-0.845674305366;
