CountryCode; Year;GDP;Current account balance (% of GDP);Stocks traded, total value (% of GDP);Research and development expenditure (% of GDP);Household final consumption expenditure, etc. (annual % growth);Gross national expenditure (% of GDP);Exports of goods and services (annual % growth);Imports of goods and services (annual % growth);Trade (% of GDP);Inflation, GDP deflator (annual %);Unemployment, total (% of total labor force) (national estimate);Population growth (annual %);Urban population growth (annual %);Previous Year's GDP(%);
svn;1961;0.0;-0.203601742888;-0.317314382331;-0.415006277647;-0.823594052889;-0.835470594914;-0.78188798941;-0.790681801965;0.811617040395;0.704027476263;0.0421949131117;0.228589558773;1.35751509789;-0.279864786786;
svn;1962;0.0;-0.203601742888;-0.317314382331;-0.415006277647;-0.823594052889;-0.835470594914;-0.78188798941;-0.790681801965;0.811617040395;0.704027476263;0.0421949131117;0.235667316533;1.14405281298;-0.279864786786;
svn;1963;0.0;-0.203601742888;-0.317314382331;-0.415006277647;-0.823594052889;-0.835470594914;-0.78188798941;-0.790681801965;0.811617040395;0.704027476263;0.0421949131117;0.750873090815;1.26992436024;-0.279864786786;
svn;1964;0.0;-0.203601742888;-0.317314382331;-0.415006277647;-0.823594052889;-0.835470594914;-0.78188798941;-0.790681801965;0.811617040395;0.704027476263;0.0421949131117;0.983699798581;1.31361668923;-0.279864786786;
svn;1965;0.0;-0.203601742888;-0.317314382331;-0.415006277647;-0.823594052889;-0.835470594914;-0.78188798941;-0.790681801965;0.811617040395;0.704027476263;0.0421949131117;1.22097367632;1.35526573594;-0.279864786786;
svn;1966;0.0;-0.203601742888;-0.317314382331;-0.415006277647;-0.823594052889;-0.835470594914;-0.78188798941;-0.790681801965;0.811617040395;0.704027476263;0.0421949131117;1.68968392077;1.4652262518;-0.279864786786;
svn;1967;0.0;-0.203601742888;-0.317314382331;-0.415006277647;-0.823594052889;-0.835470594914;-0.78188798941;-0.790681801965;0.811617040395;0.704027476263;0.0421949131117;1.50799000782;1.392150996;-0.279864786786;
svn;1968;0.0;-0.203601742888;-0.317314382331;-0.415006277647;-0.823594052889;-0.835470594914;-0.78188798941;-0.790681801965;0.811617040395;0.704027476263;0.0421949131117;0.878916957394;1.19898523649;-0.279864786786;
svn;1969;0.0;-0.203601742888;-0.317314382331;-0.415006277647;-0.823594052889;-0.835470594914;-0.78188798941;-0.790681801965;0.811617040395;0.704027476263;0.0421949131117;0.125659258432;0.965067129557;-0.279864786786;
svn;1970;0.0;-0.203601742888;-0.317314382331;-0.415006277647;-0.823594052889;-0.835470594914;-0.78188798941;-0.790681801965;0.811617040395;0.704027476263;0.0421949131117;0.336629800679;1.00251979407;-0.279864786786;
svn;1971;0.0;-0.203601742888;-0.317314382331;-0.415006277647;-0.823594052889;-0.835470594914;-0.78188798941;-0.790681801965;0.811617040395;0.704027476263;0.0421949131117;0.637823182281;1.12062036402;-0.279864786786;
svn;1972;0.0;-0.203601742888;-0.317314382331;-0.415006277647;-0.823594052889;-0.835470594914;-0.78188798941;-0.790681801965;0.811617040395;0.704027476263;0.0421949131117;0.682084174161;1.27897942888;-0.279864786786;
svn;1973;0.0;-0.203601742888;-0.317314382331;-0.415006277647;-0.823594052889;-0.835470594914;-0.78188798941;-0.790681801965;0.811617040395;0.704027476263;0.0421949131117;0.739267779909;1.26111457399;-0.279864786786;
svn;1974;0.0;-0.203601742888;-0.317314382331;-0.415006277647;-0.823594052889;-0.835470594914;-0.78188798941;-0.790681801965;0.811617040395;0.704027476263;0.0421949131117;0.0965155166702;1.05360117795;-0.279864786786;
svn;1975;0.0;-0.203601742888;-0.317314382331;-0.415006277647;-0.823594052889;-0.835470594914;-0.78188798941;-0.790681801965;0.811617040395;0.704027476263;0.0421949131117;1.08468346776;1.29628695677;-0.279864786786;
svn;1976;0.0;-0.203601742888;-0.317314382331;-0.415006277647;-0.823594052889;-0.835470594914;-0.78188798941;-0.790681801965;0.811617040395;0.704027476263;0.0421949131117;2.19120232895;1.57435672787;-0.279864786786;
svn;1977;0.0;-0.203601742888;-0.317314382331;-0.415006277647;-0.823594052889;-0.835470594914;-0.78188798941;-0.790681801965;0.811617040395;0.704027476263;0.0421949131117;1.59699706471;1.37274511631;-0.279864786786;
svn;1978;0.0;-0.203601742888;-0.317314382331;-0.415006277647;-0.823594052889;-0.835470594914;-0.78188798941;-0.790681801965;0.811617040395;0.704027476263;0.0421949131117;1.33176004358;1.26926479476;-0.279864786786;
svn;1979;0.0;-0.203601742888;-0.317314382331;-0.415006277647;-0.823594052889;-0.835470594914;-0.78188798941;-0.790681801965;0.811617040395;0.704027476263;0.0421949131117;1.29155984275;1.22559527171;-0.279864786786;
svn;1980;0.0;-0.203601742888;-0.317314382331;-0.415006277647;-0.823594052889;-0.835470594914;-0.78188798941;-0.790681801965;0.811617040395;0.704027476263;0.0421949131117;1.11050251698;1.14550368835;-0.279864786786;
svn;1981;0.0;-0.203601742888;-0.317314382331;-0.415006277647;-0.823594052889;-0.835470594914;-0.78188798941;-0.790681801965;0.811617040395;0.704027476263;0.0421949131117;-0.47788446636;0.358274224408;-0.279864786786;
svn;1982;0.0;-0.203601742888;-0.317314382331;-0.415006277647;-0.823594052889;-0.835470594914;-0.78188798941;-0.790681801965;0.811617040395;0.704027476263;0.0421949131117;-0.643737081081;-0.622364797279;-0.279864786786;
svn;1983;0.0;-0.203601742888;-0.317314382331;-0.415006277647;-0.823594052889;-0.835470594914;-0.78188798941;-0.790681801965;0.811617040395;0.704027476263;0.0421949131117;0.302800627237;-0.360812101859;-0.279864786786;
svn;1984;0.0;-0.203601742888;-0.317314382331;-0.415006277647;-0.823594052889;-0.835470594914;-0.78188798941;-0.790681801965;0.811617040395;0.704027476263;0.0421949131117;0.0467441613448;-0.432329309843;-0.279864786786;
svn;1985;0.0;-0.203601742888;-0.317314382331;-0.415006277647;-0.823594052889;-0.835470594914;-0.78188798941;-0.790681801965;0.811617040395;0.704027476263;0.0421949131117;0.00142480333;-0.445589864003;-0.279864786786;
svn;1986;0.0;-0.203601742888;-0.317314382331;-0.415006277647;-0.823594052889;-0.835470594914;-0.78188798941;-0.790681801965;0.811617040395;0.704027476263;0.0421949131117;1.67825818045;0.018299997527;-0.279864786786;
svn;1987;0.0;-0.203601742888;-0.317314382331;-0.415006277647;-0.823594052889;-0.835470594914;-0.78188798941;-0.790681801965;0.811617040395;0.704027476263;0.0421949131117;1.58724373806;-0.00747959465562;-0.279864786786;
svn;1988;0.0;-0.203601742888;-0.317314382331;-0.415006277647;-0.823594052889;-0.835470594914;-0.78188798941;-0.790681801965;0.811617040395;0.704027476263;0.0421949131117;-0.482189543724;-0.580243638231;-0.279864786786;
svn;1989;0.0;-0.203601742888;-0.317314382331;-0.415006277647;-0.823594052889;-0.835470594914;-0.78188798941;-0.790681801965;0.811617040395;0.704027476263;0.0421949131117;-0.957736580273;-0.715118506323;-0.279864786786;
svn;1990;-8.90010719147;-0.203601742888;-0.317314382331;-0.415006277647;-0.823594052889;-0.835470594914;-0.78188798941;-0.790681801965;0.811617040395;0.704027476263;0.0421949131117;-0.885006496763;-0.694280058114;-0.279864786786;
svn;1991;-5.46369885531;-0.203601742888;-0.317314382331;-0.415006277647;-0.823594052889;-0.354385899797;-0.78188798941;-0.790681801965;0.370444533101;0.704027476263;0.0421949131117;-0.945376738178;-0.751876508265;-3.34835028375;
svn;1992;2.84341799571;-0.203601742888;-0.317314382331;-0.415006277647;0.225789144515;0.0261833214764;-1.02198551397;-0.828675414085;-1.10405036489;3.08948107332;1.0548741356;-1.41201411238;-1.00321555942;-2.16358150352;
svn;1993;5.32748755862;-0.203601742888;-0.317314382331;-0.415006277647;2.10041039523;0.985377640723;0.70467519949;1.81432734264;-1.21575326213;-0.514476743342;2.06755335809;-1.61542596971;-1.05951079421;0.700459010887;
svn;1994;3.64255516549;-0.203601742888;-0.317314382331;-0.415006277647;1.33574447208;0.740507556175;1.54651609177;1.52552941099;-1.26234393825;-0.819714941586;1.43462880631;-1.34316287169;-0.982954544934;1.55689042944;
svn;1995;3.64772417535;-0.203601742888;-0.317314382331;-0.415006277647;1.64318134476;1.47982114389;0.740762851846;1.40514005939;-1.80214522254;-0.679770394603;0.168779702747;-1.03836933873;-0.899662027258;0.9759771325;
svn;1996;4.95733399394;-0.203601742888;-0.0291151355519;-0.415006277647;1.26880966924;1.32073582188;0.8594496473;0.802035181806;-1.81544690109;-1.0577406565;-0.210974666159;-1.2251188496;-0.951479495522;0.977759249442;
svn;1997;3.51491950415;-0.203601742888;-0.234521046944;-0.462595098474;1.2348646889;1.30417183357;1.45558248726;1.40393956993;-1.71244830171;-1.11597997659;-0.59072963867;-1.38482239663;-0.994506705259;1.42927277041;
svn;1998;5.32561552906;-0.203601742888;1.51570936175;-0.30487068585;1.17776873952;1.40703241793;1.20094050875;1.29164924108;-1.7058399333;-1.14741539474;0.421949885622;-1.57060744455;-1.04725012063;0.931972249495;
svn;1999;4.26553087688;-0.203601742888;1.58104772002;-0.223088605709;1.82121477606;1.84750288644;0.778926276765;1.1744769704;-1.89715918511;-1.15718105244;0.295365095987;-0.927628105197;-0.869051618126;1.55624501075;
svn;2000;2.93963362231;-0.203601742888;0.47092747041;-0.171990813701;0.876296318865;1.73021831407;1.60354544744;1.13428825193;-1.42850470833;-1.18551022388;-0.210974666159;-0.428777224;-0.730940013586;1.19076015637;
svn;2001;3.82685068477;-0.203601742888;2.26281822169;0.119637988205;1.1414702304;1.29788728397;1.1185591892;0.870105271405;-1.41620495455;-1.11329895352;-1.7299939526;-0.736503372528;-0.814955690352;0.733631224262;
svn;2002;2.93004946924;-0.203601742888;2.80217406203;0.0441823013603;1.16441003146;0.972156767387;1.14684230255;0.987937540156;-1.50061066559;-1.13577012835;-0.970484007576;-0.811079368525;-0.873221288761;1.03951660634;
svn;2003;4.40180692136;-0.203601742888;0.682382871353;-0.459495934147;1.2703981659;1.20057593094;0.886883951148;1.10243630825;-1.5452257499;-1.17899279522;-0.464144849034;-0.952352715727;-1.02026087433;0.730326900611;
svn;2004;4.00725592314;-0.203601742888;1.78173525509;-0.13928310423;1.24412198284;1.37407134775;1.55502429618;1.53696667334;-1.19688385621;-1.22663911096;-0.970484007576;-0.943982231671;-1.01815887809;1.23774397995;
svn;2005;5.84960263226;-0.203601742888;0.331070757227;-0.027994930659;1.08074235182;1.22981932954;1.42026587658;1.10274084998;-0.895671141908;-1.26056818108;-0.717314428305;-0.701616953845;-0.951218161489;1.10171482998;
svn;2006;6.96023042777;-0.118723124034;0.806585294426;0.281972727928;1.18683828573;1.24766100997;1.56140888234;1.46156182469;-0.556929186925;-1.25101383538;-1.35023898009;-0.377614908788;-0.861631965627;1.73689978177;
svn;2007;3.38329008138;-1.8919827703;4.41807981855;0.000307355139901;1.74380622413;1.44431471342;1.64732216098;1.75661519125;-0.284258202445;-1.2074978445;-2.86925766292;0.155542808232;-0.714160244217;2.11981037034;
svn;2008;-7.94296692224;-2.73342743685;0.765099252925;0.529957099969;1.27073312668;1.68991744688;0.871099926461;0.908581573064;-0.402151187155;-1.20834502078;-3.37559742507;-0.735077504142;-0.962280403527;0.886590439358;
svn;2009;1.25844842809;0.821141970443;0.177409158011;1.05596980898;0.7791804615;0.929153415153;-0.569872509373;-0.613231010908;-1.27060328368;-1.22586324579;-1.47682376972;0.920921395019;-0.501302485673;-3.01835751271;
svn;2010;0.708859535314;1.07413241997;-1.5566176874;1.6858941682;0.593127045984;1.07101743306;1.3465161198;1.13494220512;-0.693666987972;-1.31793422782;0.168779702747;-0.11787933872;-0.791721593333;0.154009847216;
svn;2011;-2.54306809582;1.45946429049;-1.04614488062;2.62686192899;0.593127045984;0.994764573841;1.3465161198;1.13494220512;-0.253264677821;-1.27114095909;1.43462880631;-0.624952463247;-0.931215906345;-0.0354716399726;
svn;2012;-1.1065618427;3.51715769341;-1.20754570379;3.4615872631;0.593127045984;0.375204519712;1.3465161198;1.13494220512;-0.253264677821;-1.29027591651;2.19413875133;-0.619863665538;-0.930019599255;-1.15663709997;