0.0
0.0
0.0
0.0
0.0
0.0
0.0
0.0
0.0
0.0
0.0
0.0
0.0
0.0
0.0
0.0
0.0
0.0
0.0
0.0
0.0
0.0
0.0
0.0
0.0
0.0
0.0
0.0
0.0
-8.90010719147
-5.46369885531
2.84341799571
5.32748755862
3.64255516549
3.64772417535
4.95733399394
3.51491950415
5.32561552906
4.26553087688
2.93963362231
3.82685068477
2.93004946924
4.40180692136
4.00725592314
5.84960263226
6.96023042777
3.38329008138
-7.94296692224
1.25844842809
0.708859535314
-2.54306809582
-1.1065618427
0.0
